<?xml version="1.0" encoding="UTF-8" standalone="no"?>
<!-- Created with Inkscape (http://www.inkscape.org/) -->

<svg
   width="34.357197mm"
   height="34.523079mm"
   viewBox="0 0 34.357196 34.523079"
   version="1.1"
   id="svg5"
   inkscape:version="1.1.1 (3bf5ae0d25, 2021-09-20, custom)"
   sodipodi:docname="ars-magna-logo-circle-shaded.svg"
   xmlns:inkscape="http://www.inkscape.org/namespaces/inkscape"
   xmlns:sodipodi="http://sodipodi.sourceforge.net/DTD/sodipodi-0.dtd"
   xmlns="http://www.w3.org/2000/svg"
   xmlns:svg="http://www.w3.org/2000/svg">
  <sodipodi:namedview
     id="namedview7"
     pagecolor="#ffffff"
     bordercolor="#666666"
     borderopacity="1.0"
     inkscape:pageshadow="2"
     inkscape:pageopacity="0.0"
     inkscape:pagecheckerboard="0"
     inkscape:document-units="mm"
     showgrid="true"
     fit-margin-top="0"
     fit-margin-left="0"
     fit-margin-right="0"
     fit-margin-bottom="0"
     inkscape:zoom="4.7917836"
     inkscape:cx="61.981096"
     inkscape:cy="67.511396"
     inkscape:window-width="2556"
     inkscape:window-height="1416"
     inkscape:window-x="1920"
     inkscape:window-y="20"
     inkscape:window-maximized="1"
     inkscape:current-layer="layer1">
    <inkscape:grid
       type="xygrid"
       id="grid1890"
       originx="59.630908"
       originy="-59.495521" />
  </sodipodi:namedview>
  <defs
     id="defs2">
    <marker
       style="overflow:visible"
       id="Arrow1Lstart"
       refX="0"
       refY="0"
       orient="auto"
       inkscape:stockid="Arrow1Lstart"
       inkscape:isstock="true">
      <path
         transform="matrix(0.8,0,0,0.8,10,0)"
         style="fill:context-stroke;fill-rule:evenodd;stroke:context-stroke;stroke-width:1pt"
         d="M 0,0 5,-5 -12.5,0 5,5 Z"
         id="path1154" />
    </marker>
    <linearGradient
       id="linearGradient1148"
       inkscape:swatch="gradient">
      <stop
         style="stop-color:#000000;stop-opacity:1;"
         offset="0"
         id="stop1144" />
      <stop
         style="stop-color:#000000;stop-opacity:0;"
         offset="1"
         id="stop1146" />
    </linearGradient>
    <filter
       style="color-interpolation-filters:sRGB"
       inkscape:label="Blur"
       id="filter1364"
       x="-0.048675792"
       y="-0.048419256"
       width="1.0973516"
       height="1.0968385">
      <feGaussianBlur
         stdDeviation="1.2 1.2"
         result="fbSourceGraphic"
         id="feGaussianBlur1362" />
      <feColorMatrix
         result="fbSourceGraphicAlpha"
         in="fbSourceGraphic"
         values="0 0 0 -1 0 0 0 0 -1 0 0 0 0 -1 0 0 0 0 1 0"
         id="feColorMatrix1402" />
      <feGaussianBlur
         id="feGaussianBlur1404"
         stdDeviation="1.2 1.2"
         result="blur"
         in="fbSourceGraphic" />
    </filter>
  </defs>
  <g
     inkscape:label="Layer 1"
     inkscape:groupmode="layer"
     id="layer1"
     transform="translate(16.866604,-133.86158)">
    <g
       id="g1426">
      <path
         id="path1738"
         d="M 59.167969,0 54.583984,0.6875 50,1.375 V 2.0429688 2.7109375 L 54.25,4.3085938 58.5,5.9082031 59,6.0273438 59.5,6.1464844 64.386719,4.2910156 69.273438,2.4355469 68.386719,1.90625 67.5,1.3789062 63.333984,0.68945312 Z M 39.107422,7.8144531 37.382812,9.2324219 35.660156,10.648438 32.830078,15.09375 30,19.539062 v 0.804688 0.804688 l 4.25,0.09961 4.25,0.09961 2.5,0.748047 2.5,0.75 0.578125,-0.599609 0.576172,-0.597656 3.792969,-5.296876 L 52.240234,11.05469 51.75,10.564453 51.261719,10.074219 45.183594,8.9453125 Z m 40.912109,0.1035157 -4.667969,0.7011718 -4.667968,0.6992188 -2.501953,0.9511716 -2.501953,0.951172 2.980468,3.214844 2.980469,3.212891 1.660156,2.685546 1.66211,2.685547 3.261718,-0.935547 3.263672,-0.935546 H 85.244141 89 V 20.34375 19.539062 L 86.171875,15.09375 83.341797,10.648438 81.679688,9.2832031 Z M 23.927734,12.148438 17.964844,17.947266 12,23.746094 v 1.115234 1.115234 l 4.861328,-2.054687 4.861328,-2.052734 2.052735,-4.861329 2.052734,-4.859374 h -0.949219 z m 69.265625,0 1.691407,4.453124 1.691406,4.455079 0.779297,0.779297 0.777343,0.779296 4.183598,1.59375 4.18359,1.595704 0.35938,-0.269532 0.35937,-0.271484 -2.14063,-3.007813 -2.14257,-3.007812 -4.146488,-3.548828 -4.148437,-3.550781 h -0.722656 z m -33.921875,2.884765 -4.162109,4.728516 -4.162109,4.728515 0.277343,0.783204 0.275391,0.78125 3.914062,2.912109 3.914063,2.910156 4.294922,-3.029297 4.296875,-3.027344 -1.701172,-2.880859 -1.701172,-2.880859 -2.623047,-2.511719 z M 91,28.144531 l -4.25,0.01563 -4.25,0.01367 -2.25,0.603516 -2.25,0.601562 v 2.259766 2.257812 l 0.615234,3.070313 0.613282,3.068359 2.636718,0.40625 2.634766,0.40625 2.625,0.148438 2.625,0.15039 0.625,-3.125 L 91,34.894531 v -3.375 z m -63,0.0039 v 4.917968 4.917969 l 0.650391,1.691406 0.648437,1.691407 5.082031,-0.675782 v 0.0039 l 5.083985,-0.673828 0.154297,-0.185546 0.15625,-0.185547 0.6875,-5.113282 0.6875,-5.113281 L 38.826172,28.800781 36.5,28.177734 32.25,28.162109 Z M 20.1875,30 l -2.974609,1.539062 -2.972657,1.53711 -3.11914,2.625 L 8,38.326172 v 2.46875 2.466797 l 1.1191406,4.443359 1.1191404,4.44336 h 0.441407 0.441406 l 5.388672,-3.75 5.390625,-3.75 -0.587891,-7 -0.589844,-7 -0.267578,-0.324219 z M 98,30.148438 v 3.755859 3.757812 l -0.919922,3.210938 -0.921875,3.208984 3.189453,1.970703 3.187504,1.970704 2.42968,2.585937 2.42969,2.585937 0.82813,-1.478515 0.82617,-1.478516 1.11133,-5.529297 1.11132,-5.53125 -1.38476,-1.685546 -1.38672,-1.685547 -4.44531,-2.830079 -4.445315,-2.828124 h -0.804687 z m -49.15625,2.824218 -0.464844,0.462891 -0.46289,0.464844 -0.574219,3.529297 -0.572266,3.527343 1.865235,0.480469 1.865234,0.478516 1.089844,0.117187 1.089844,0.115235 1.080078,-2.371094 1.080078,-2.371094 -2.998047,-2.216797 z m 21.9375,0.177735 -0.640625,0.0039 -0.640625,0.0039 -2.876953,2.302735 -2.878906,2.304687 1.36914,2.191406 1.369141,2.191407 h 0.824219 v 0.002 h 0.826171 l 1.740235,-0.931641 1.742187,-0.931641 -0.416015,-3.568359 z m 7.480469,13.826171 -0.675781,2.69336 -0.675782,2.693359 1.794922,1.361328 1.794922,1.361329 0.5625,0.0293 v 0.002 l 0.5625,0.03125 2.275391,-3.080079 2.27539,-3.078125 -0.33789,-0.332031 L 85.5,48.326172 81.880859,47.650391 Z M 40.205078,47.019531 36.603516,47.695312 33,48.371094 V 49.125 49.878906 l 2.041016,2.59375 2.041015,2.595703 2.521485,-1.148437 2.519531,-1.148438 -0.642578,-2.558593 -0.642578,-2.560547 -0.316407,-0.316406 z m -38.5683592,2.628907 -0.71875005,2.5 -0.71679687,2.5 -0.10156251,4.125 L 0,62.898438 l 0.63867188,3.1875 0.63671872,3.1875 0.6796875,-0.8125 0.6777344,-0.8125 L 4.3632812,63.630859 6.09375,59.613281 3.8652344,54.630859 Z M 116.71484,49.875 l -1.83203,4.824219 -1.83203,4.824219 1.70117,4.787109 1.69922,4.787109 0.94141,-0.941406 0.9414,-0.941406 v -7.359375 -7.359375 l -0.81054,-1.310547 z m -92.373043,1.220703 -4.8125,4.236328 -4.8125,4.236328 4.738281,4.289063 4.738281,4.291016 h 0.710938 0.710937 l 3.007813,-4.267579 3.007812,-4.265625 -2.878906,-3.984375 -2.878906,-3.982421 -0.765625,-0.277344 z m 69.001953,0.04687 -3.0625,4.265625 -3.0625,4.263672 3.044922,4.203125 3.044922,4.205078 2.890625,-1.708984 2.890625,-1.707032 2.458986,-2.566406 2.46094,-2.568359 L 101.25391,56.96875 98.5,54.40625 95.921875,52.775391 Z m -36.625,5.50586 -1.050781,1.666015 -1.050781,1.666016 1.355468,1.634765 L 57.330078,63.25 59.916016,62.949219 62.5,62.648438 v -3 -3 h -2.890625 z m 24.90625,7.501953 -0.5625,0.03125 -0.5625,0.0293 -1.794922,1.363281 -1.794922,1.361328 0.675782,2.693359 0.675781,2.69336 3.61914,-0.675782 v 0.002 l 3.621094,-0.675782 0.337891,-0.332031 0.33789,-0.332031 -2.277343,-3.078125 z m -44.542969,0.07813 -2.041015,2.59375 L 33,69.417969 v 0.794922 0.796875 l 2.25,0.433593 2.25,0.431641 1.75,0.136719 1.748047,0.136719 0.01563,-0.75 0.01367,-0.75 0.554687,-2.058594 0.552735,-2.060547 -2.525391,-1.150391 z M 107.82227,66.076172 104,69.529297 l -3.82227,3.453125 -2.019527,1.080078 -2.019531,1.080078 0.93164,3.246094 L 98,81.632812 v 3.757813 3.755859 h 0.804688 0.804687 l 4.445315,-2.828125 4.44531,-2.830078 1.36328,-1.660156 1.36328,-1.660156 -0.66211,-3.759766 -0.66406,-3.761719 -1.03906,-3.285156 z m -96.966801,0.882812 -0.449219,0.449219 -0.4511719,0.451172 -1.1933593,5.689453 -1.1933594,5.689453 1.0410156,1.705078 1.0429688,1.703125 4.7871092,3.25 4.787109,3.25 H 20.113281 21 l 0.01172,-3.75 0.01172,-3.75 0.517578,-3.5 0.517578,-3.5 -5.601563,-3.84375 z M 52.625,77.025391 l -2.560547,0.640625 -2.558594,0.642578 -0.373047,0.373047 -0.373046,0.371093 0.666015,3.546875 0.666016,3.546875 h 0.494141 0.496093 l 2.878907,-2.128906 2.878906,-2.128906 -1.107422,-2.431641 z m 13.857422,0.123047 -1.369141,2.193359 -1.36914,2.191406 2.878906,2.302735 2.876953,2.302734 0.640625,0.0039 v 0.002 l 0.640625,0.0039 0.417969,-3.566407 0.416015,-3.568359 -1.742187,-0.931641 -1.740235,-0.933593 h -0.826171 z m -36.726563,0.777343 -0.863281,1.361328 -0.861328,1.359375 -0.01563,5.371094 -0.01367,5.369141 5.978516,-0.431641 h 0.002 l 5.978516,-0.433594 0.570312,-0.570312 0.570312,-0.570313 -0.667968,-5.039062 -0.667969,-5.039063 -5.003906,-0.689453 z m 59.951172,0.002 -5.083984,0.673828 -5.085938,0.675782 -0.298828,0.298828 -0.298828,0.298828 -0.597656,5.039062 -0.595703,5.03711 1.876953,0.482422 1.876953,0.480468 4.75,0.117188 4.751953,0.115234 v -3.375 -3.375 L 90.353516,81.162109 Z M 59.328125,87.417969 55.414062,90.328125 51.5,93.240234 l -0.275391,0.783204 -0.277343,0.78125 4.162109,4.728515 4.162109,4.728517 2.623047,-2.51172 2.621094,-2.513672 1.703125,-2.880859 1.701172,-2.88086 -4.296875,-3.027343 z M 12,93.318359 v 1.115235 1.115234 l 5.964844,5.798832 5.96289,5.79882 h 0.951172 0.949219 l -2.052734,-4.85937 -2.052735,-4.861329 -4.861328,-2.052734 z m 95,0.02148 -4.45312,1.691406 -4.455083,1.689453 -0.757813,0.759766 -0.757812,0.757812 -1.691406,4.455074 -1.691407,4.45312 h 0.984375 0.982422 L 101.08008,101.22656 107,95.306641 v -0.982422 z m -32.037109,2.935547 -1.66211,2.685547 -1.660156,2.685537 -2.984375,3.21875 -2.986328,3.21681 1.773437,0.68164 1.773438,0.67968 3.142578,0.75 3.140625,0.74806 2.576172,0.10351 2.576172,0.10352 2.068359,-2.25 2.070313,-2.25 2.101562,-3.5 2.101563,-3.500007 0.002,-0.75 0.0039,-0.75 h -3.755859 -3.75586 L 78.22465,97.212886 Z m -31.207032,0.08203 -3.121093,0.894531 -3.121094,0.894531 h -3.75586 -3.755859 l 0.002,0.75 0.0039,0.75 2.101563,3.499992 2.101563,3.5 2.068359,2.25 2.070312,2.25 h 1.77535 1.777344 l 5.048828,-1.08203 5.050781,-1.08398 v -0.46485 -0.46679 l -4.123047,-5.84571 z M 59.625,113.19727 54.8125,114.90625 50,116.61719 v 0.69726 0.69922 l 2.75,0.47461 2.75,0.47266 5.835938,-0.40039 5.835937,-0.40039 1.050781,-0.65039 1.050782,-0.65039 -4.824219,-1.83008 z"
         style="fill:#000000;filter:url(#filter1364)"
         inkscape:export-filename="/home/titan/dev/cardano/arsmagna.xyz/logo.circle.black.png"
         inkscape:export-xdpi="262.13"
         inkscape:export-ydpi="262.13"
         transform="matrix(0.26458333,0,0,0.26458333,-15.342604,135.38558)" />
      <path
         id="path1186"
         d="m 0.31225578,134.85624 -1.21284601,0.1819 -1.21284577,0.1819 v 0.17673 0.17674 l 1.12447917,0.42271 1.12447915,0.42323 0.13229166,0.0315 0.13229167,0.0315 1.29294435,-0.49093 1.2929444,-0.49093 -0.2346111,-0.14004 -0.234611,-0.13953 -1.1022584,-0.18241 z m -5.30768638,2.06757 -0.456303,0.37517 -0.4557861,0.37466 -0.7487914,1.17615 -0.7487915,1.17616 v 0.21291 0.2129 l 1.1244792,0.0264 1.1244791,0.0264 0.6614583,0.19792 0.6614584,0.19844 0.1529622,-0.15865 0.1524455,-0.15813 1.0035564,-1.40146 1.0035561,-1.40147 -0.1297078,-0.1297 -0.129191,-0.12971 -1.6081705,-0.29869 z m 10.8246621,0.0274 -1.2350668,0.18552 -1.2350665,0.185 -0.6619751,0.25166 -0.661975,0.25167 0.7885821,0.85059 0.7885824,0.85008 0.4392496,0.71055 0.4397666,0.71055 0.8629962,-0.24753 0.8635132,-0.24753 h 0.993738 0.9937377 v -0.2129 -0.21291 l -0.7482748,-1.17617 -0.7487914,-1.17615 -0.4397664,-0.36122 z m -14.8409545,1.11931 -1.577681,1.53428 -1.578198,1.53427 v 0.29507 0.29507 l 1.286226,-0.54363 1.2862267,-0.54312 0.5431189,-1.28623 0.5431192,-1.28571 h -0.2511475 z m 18.3265298,0 0.4475181,1.17822 0.4475181,1.17874 0.206189,0.20619 0.205672,0.20619 1.10691,0.42168 1.106909,0.4222 0.09509,-0.0713 0.09508,-0.0718 -0.566375,-0.79581 -0.566888,-0.79582 -1.097092,-0.93896 -1.0976078,-0.93948 H 9.5065265 Z m -8.97516268,0.76326 -1.10122465,1.25109 -1.10122467,1.25109 0.07338,0.20722 0.072864,0.2067 1.03559557,0.7705 1.03559582,0.76998 1.13636471,-0.8015 1.1368815,-0.80099 -0.4501017,-0.76222 -0.4501018,-0.76223 -0.6940145,-0.66456 z m 8.39483638,3.46904 -1.1244791,0.004 -1.1244792,0.004 -0.5953125,0.15968 -0.5953125,0.15917 v 0.59789 0.59738 l 0.1627807,0.81236 0.1622642,0.81183 0.6976316,0.10749 0.6971152,0.10749 0.6945312,0.0393 0.6945313,0.0398 0.1653645,-0.82682 0.1653646,-0.82734 v -0.89297 z m -16.6687498,0.001 v 1.30121 1.30121 l 0.1720827,0.44752 0.1715656,0.44752 1.3446207,-0.1788 v 0.001 l 1.3451376,-0.17828 0.040825,-0.0491 0.041341,-0.0491 0.181901,-1.35289 0.1819011,-1.35289 -0.6149496,-0.16485 -0.6154664,-0.16484 -1.1244791,-0.004 z m -2.0670567,0.48989 -0.787032,0.40721 -0.786515,0.40669 -0.825273,0.69453 -0.825789,0.69453 v 0.65319 0.65268 l 0.296106,1.17564 0.296105,1.17564 h 0.116789 0.116789 l 1.425753,-0.99219 1.4262687,-0.99219 -0.155546,-1.85208 -0.156063,-1.85209 -0.0708,-0.0858 z m 20.58789,0.0393 v 0.99374 0.99425 l -0.243396,0.84957 -0.243912,0.84904 0.843876,0.52141 0.84336,0.52142 0.642853,0.6842 0.642855,0.68419 0.21911,-0.39119 0.218591,-0.39119 0.294039,-1.46296 0.294037,-1.46348 -0.366385,-0.44596 -0.366903,-0.44597 -1.176155,-0.74879 -1.176156,-0.74828 h -0.212907 z m -13.0059245,0.74724 -0.1229899,0.12248 -0.122473,0.12299 -0.1519288,0.93379 -0.151412,0.93328 0.49351,0.12712 0.4935099,0.12661 0.2883545,0.031 0.2883546,0.0305 0.2857706,-0.62735 0.28577067,-0.62735 -0.79323327,-0.58653 z m 5.8042968,0.047 -0.1694987,0.001 -0.1694987,0.001 -0.7611938,0.60926 -0.7617105,0.60978 0.3622516,0.57981 0.3622519,0.57981 h 0.2180746 v 5.2e-4 h 0.2185911 l 0.4604372,-0.2465 0.4609536,-0.24649 -0.1100706,-0.94413 z m 1.9792074,3.65817 -0.1788004,0.71262 -0.1788006,0.71262 0.4749064,0.36018 0.4749065,0.36019 0.1488281,0.008 v 5.2e-4 l 0.1488281,0.008 0.6020305,-0.81494 0.6020303,-0.81442 -0.0894,-0.0879 -0.0894,-0.0879 -0.9575644,-0.1788 z m -10.0691528,0.0114 -0.9529132,0.1788 -0.9534303,0.1788 v 0.19947 0.19948 l 0.5400188,0.68626 0.5400185,0.68678 0.6671429,-0.30386 0.6666259,-0.30386 -0.1700154,-0.67696 -0.1700154,-0.67748 -0.083716,-0.0837 z m -10.2045439,0.69557 -0.19017,0.66146 -0.189652,0.66145 -0.02687,1.09141 -0.02636,1.09141 0.168982,0.84336 0.168465,0.84336 0.179834,-0.21498 0.179317,-0.21497 0.457853,-1.06299 0.457854,-1.06298 -0.589628,-1.31827 z m 30.447752,0.0599 -0.484725,1.27641 -0.484724,1.27641 0.450101,1.26659 0.449585,1.26659 0.249082,-0.24908 0.249078,-0.24908 v -1.94717 -1.94717 l -0.214455,-0.34675 z m -24.4403678,0.32298 -1.2733072,1.12086 -1.273307,1.12086 1.25367,1.13482 1.25367,1.13533 h 0.1881023 0.1881021 l 0.7958172,-1.12913 0.7958169,-1.12861 -0.7617105,-1.0542 -0.7617106,-1.05369 -0.2025716,-0.0734 z m 18.2567665,0.0124 -0.8102864,1.12862 -0.8102865,1.12809 0.8056356,1.11208 0.8056356,1.11259 0.764812,-0.45217 0.764811,-0.45165 0.650607,-0.67903 0.651123,-0.67954 -0.729154,-0.67748 -0.728639,-0.67799 -0.682129,-0.4315 z m -9.69036444,1.45676 -0.27801909,0.4408 -0.2780192,0.4408 0.3586343,0.43253 0.35915119,0.43253 0.68419608,-0.0796 0.68367906,-0.0796 v -0.79375 -0.79375 H 0.42904445 Z m 6.58977854,1.98489 -0.1488281,0.008 -0.1488281,0.008 -0.4749065,0.3607 -0.4749064,0.36019 0.1788006,0.71262 0.1788004,0.71261 0.9575641,-0.1788 v 5.2e-4 l 0.9580811,-0.1788 0.0894,-0.0878 0.0894,-0.0879 -0.602547,-0.81442 z m -11.7853271,0.0207 -0.5400185,0.68627 -0.5400188,0.68678 v 0.21032 0.21084 l 0.5953125,0.11472 0.5953125,0.11421 0.4630208,0.0362 0.4625041,0.0362 0.00413,-0.19844 0.00362,-0.19843 0.1467609,-0.54467 0.1462445,-0.54519 -0.6681764,-0.30437 z m 18.7166883,0.48886 -1.011309,0.91364 -1.011309,0.91364 -0.534333,0.28577 -0.534334,0.28577 0.246496,0.85886 0.24598,0.85835 v 0.99425 0.99374 h 0.212907 0.212907 l 1.176156,-0.74827 1.176155,-0.74879 0.360701,-0.43925 0.360702,-0.43925 -0.175184,-0.99478 -0.175699,-0.99528 -0.274918,-0.8692 z m -25.655799,0.23358 -0.118856,0.11886 -0.119372,0.11937 -0.315743,1.50533 -0.315743,1.50534 0.275435,0.45113 0.275952,0.45062 1.26659,0.8599 1.266589,0.85989 h 0.234611 0.2346107 l 0.0031,-0.99219 0.0031,-0.99218 0.136942,-0.92604 0.136943,-0.92605 -1.4820797,-1.01699 z m 11.0515212,2.6634 -0.677478,0.1695 -0.6769613,0.17002 -0.098702,0.0987 -0.098702,0.0982 0.1762165,0.93845 0.1762167,0.93844 h 0.1307415 0.1312579 l 0.7617108,-0.56327 0.76171057,-0.56327 -0.29300547,-0.64338 z m 3.6664429,0.0326 -0.3622519,0.58033 -0.3622516,0.5798 0.7617105,0.60927 0.7611938,0.60926 0.1694987,0.001 v 5.2e-4 l 0.1694987,0.001 0.1105877,-0.94361 0.1100706,-0.94413 -0.4609536,-0.2465 -0.4604372,-0.24701 H 2.4656127 Z m -9.7172363,0.20567 -0.2284098,0.36019 -0.227893,0.35966 -0.00413,1.42111 -0.00362,1.42058 1.5818156,-0.1142 h 5.168e-4 l 1.5818156,-0.11473 0.1508951,-0.15089 0.150895,-0.1509 -0.1767332,-1.33325 -0.1767334,-1.33325 -1.3239501,-0.18242 z m 15.8620807,5.2e-4 -1.3451374,0.17828 -1.3456544,0.1788 -0.079065,0.0791 -0.079065,0.0791 -0.1581298,1.33325 -0.1576131,1.33274 0.4966105,0.12764 0.4966105,0.12712 1.2567708,0.031 1.2572876,0.0305 v -0.89297 -0.89297 l -0.1715657,-0.85576 z m -8.03775211,2.51096 -1.03559582,0.76997 -1.03559557,0.7705 -0.072864,0.20722 -0.07338,0.20671 1.10122467,1.25108 1.10122465,1.25109 0.69401448,-0.66456 0.6934978,-0.66507 0.4506185,-0.76223 0.4501017,-0.76223 -1.1368815,-0.80098 z m -12.52223239,1.56114 v 0.29507 0.29508 l 1.578198,1.53427 1.577681,1.53427 h 0.2516643 0.2511475 l -0.5431192,-1.28571 -0.5431189,-1.28622 -1.2862267,-0.54312 z m 25.135416,0.006 -1.178221,0.44752 -1.178741,0.447 -0.200504,0.20103 -0.200505,0.2005 -0.4475181,1.17874 -0.4475181,1.17822 H 9.575256 9.8351885 l 1.5663135,-1.56631 1.566312,-1.56631 v -0.25994 z m -8.4764852,0.7767 -0.4397666,0.71055 -0.4392496,0.71055 -0.7896158,0.85163 -0.7901327,0.85111 0.4692219,0.18035 0.4692221,0.17984 0.8314738,0.19843 0.830957,0.19793 0.6816122,0.0274 0.6816121,0.0274 0.5472534,-0.59531 0.5477703,-0.59531 0.5560382,-0.92604 0.5560386,-0.92605 5.167e-4,-0.19843 0.00103,-0.19844 H 7.2115762 6.2178382 L 5.354325,160.57753 Z m -8.2568604,0.0217 -0.8257892,0.23667 -0.8257894,0.23668 h -0.993738 -0.9937377 l 5.168e-4,0.19844 0.00103,0.19844 0.5560386,0.92604 0.5560385,0.92604 0.5472533,0.59531 0.5477701,0.59531 h 0.4697388 0.4702556 l 1.3358357,-0.28628 1.3363525,-0.28681 v -0.12299 -0.1235 l -1.0908895,-1.54668 z m 4.19871016,4.45554 -1.27330729,0.45217 -1.27330727,0.45268 v 0.18449 0.185 l 0.7276042,0.12557 0.72760417,0.12506 1.54409186,-0.10594 1.54409167,-0.10593 0.2780191,-0.17209 0.2780194,-0.17208 -1.2764079,-0.48421 z"
         style="fill:#ffffff;stroke-width:0.264583"
         inkscape:export-filename="/home/titan/dev/cardano/arsmagna.xyz/logo.circle.black.png"
         inkscape:export-xdpi="262.13"
         inkscape:export-ydpi="262.13" />
    </g>
  </g>
</svg>
