<?xml version="1.0" encoding="UTF-8"?>
<svg width="706px" height="190px" viewBox="0 0 706 190" version="1.1" xmlns="http://www.w3.org/2000/svg" xmlns:xlink="http://www.w3.org/1999/xlink">
    <script xmlns=""/><title>FrOSCon-Logo-rgb-dark-blue-endorse-below</title>
    <g id="Assets" stroke="none" stroke-width="1" fill="none" fill-rule="evenodd">
        <g id="Logo-dark-blue" transform="translate(-152.000000, -723.000000)" fill="#1F1FA3" fill-rule="nonzero">
            <g id="FrOSCon-Logo-rgb-dark-blue-endorse-below" transform="translate(152.667295, 723.000000)">
                <path d="M0,125.008922 L0,38.7851534 L0,38.7851534 C0,31.7962357 1.68592314,25.4816872 5.05776941,19.841508 C8.42961568,14.2013288 12.9662816,9.69531601 18.6677671,6.32346974 C24.3692526,2.95162347 30.6531479,1.26570033 37.5194531,1.26570033 L79.0509316,1.26570033 C81.8123554,1.26570033 84.0509316,3.50427658 84.0509316,6.26570033 L84.0509316,19.4394802 C84.0509316,22.2009039 81.8123554,24.4394802 79.0509316,24.4394802 L40.4621553,24.4394802 L40.4621553,24.4394802 C36.5385523,24.4394802 33.1973592,25.849525 30.4385759,28.6696146 C27.6797926,31.4897042 26.3004009,34.8615505 26.3004009,38.7851534 L26.3004009,54.5679877 C26.3004009,57.3294114 28.5389772,59.5679877 31.3004009,59.5679877 L72.7976894,59.5679877 C75.5591132,59.5679877 77.7976894,61.8065639 77.7976894,64.5679877 L77.7976894,77.7417675 C77.7976894,80.5031913 75.5591132,82.7417675 72.7976894,82.7417675 L31.3004009,82.7417675 C28.5389772,82.7417675 26.3004009,84.9803438 26.3004009,87.7417675 L26.3004009,125.008922 C26.3004009,127.770345 24.0618247,130.008922 21.3004009,130.008922 L5,130.008922 C2.23857625,130.008922 -5.50001544e-16,127.770345 0,125.008922 Z" id="Path"/>
                <path d="M92.0428709,125.008922 L92.0428709,62.8785277 L92.0428709,62.8785277 C92.0428709,54.5408714 94.4031632,48.0117509 99.123748,43.2911661 C103.844333,38.5705814 110.373453,36.210289 118.71111,36.210289 L139.643673,36.210289 C142.405096,36.210289 144.643673,38.4488652 144.643673,41.210289 L144.643673,52.7287988 C144.643673,55.4902226 142.405096,57.7287988 139.643673,57.7287988 L123.125163,57.7287988 L123.125163,57.7287988 C121.531199,57.7287988 120.151808,58.2805555 118.986988,59.3840688 C117.822168,60.4875821 117.239758,61.8976269 117.239758,63.6142032 L117.239758,125.008922 C117.239758,127.770345 115.001182,130.008922 112.239758,130.008922 L97.0428709,130.008922 C94.2814471,130.008922 92.0428709,127.770345 92.0428709,125.008922 Z" id="Path"/>
                <path d="M298.504438,124.995539 L298.504438,111.821759 C298.504438,109.060336 300.743014,106.821759 303.504438,106.821759 L353.680104,106.821759 L353.680104,106.821759 C356.377581,106.821759 358.829833,106.14739 361.03686,104.798652 C363.243887,103.449913 365.021769,101.641377 366.370508,99.3730444 C367.719246,97.1047115 368.393615,94.6218065 368.393615,91.9243295 C368.393615,89.1042398 367.719246,86.5600286 366.370508,84.2916956 C365.021769,82.0233627 363.243887,80.2148269 361.03686,78.8660884 C358.829833,77.5173499 356.377581,76.8429807 353.680104,76.8429807 L332.161595,76.8429807 C324.927452,76.8429807 318.367678,75.3716296 312.482274,72.4289274 C306.596869,69.4862252 301.906938,65.2254376 298.412479,59.6465647 C294.91802,54.0676918 293.17079,47.3546524 293.17079,39.5074465 C293.17079,31.7828532 294.82606,25.0698138 298.1366,19.3683283 C301.44714,13.6668428 305.9225,9.22213634 311.562679,6.03420896 C317.202858,2.84628157 323.456101,1.25231788 330.322406,1.25231788 L381.233747,1.25231788 C383.995171,1.25231788 386.233747,3.49089413 386.233747,6.25231788 L386.233747,19.4260977 C386.233747,22.1875215 383.995171,24.4260977 381.233747,24.4260977 L332.89727,24.4260977 L332.89727,24.4260977 C330.445018,24.4260977 328.176685,25.0698138 326.092271,26.357246 C324.007857,27.6446782 322.38324,29.3306014 321.218421,31.4150154 C320.053601,33.4994295 319.471191,35.8290687 319.471191,38.4039332 C319.471191,40.9787976 320.053601,43.3084368 321.218421,45.3928509 C322.38324,47.477265 324.007857,49.1325349 326.092271,50.3586609 C328.176685,51.5847868 330.445018,52.1978497 332.89727,52.1978497 L355.151455,52.1978497 C363.121274,52.1978497 370.048885,53.7305071 375.93429,56.7958219 C381.819694,59.8611367 386.387013,64.1525774 389.636247,69.6701441 C392.885481,75.1877107 394.510097,81.6248718 394.510097,88.9816273 C394.510097,97.6871213 392.824174,105.105183 389.452328,111.235813 C386.080482,117.366442 381.543816,122.025721 375.84233,125.213648 C370.140845,128.401575 363.856949,129.995539 356.990644,129.995539 L303.504438,129.995539 C300.743014,129.995539 298.504438,127.756963 298.504438,124.995539 Z" id="Path"/>
                <path d="M469.331588,129.995539 C459.277355,129.750314 450.204023,127.941778 442.111592,124.569932 C434.019161,121.198086 427.09155,116.600114 421.328758,110.776015 C415.565966,104.951917 411.12126,98.1775716 407.994639,90.4529784 C404.868017,82.7283851 403.304707,74.4520351 403.304707,65.6239285 C403.304707,56.7958219 404.868017,48.519472 407.994639,40.7948787 C411.12126,33.0702854 415.565966,26.2959397 421.328758,20.4718416 C427.09155,14.6477435 434.019161,10.0191182 442.111592,6.58596562 C450.204023,3.15281305 459.277355,1.37493047 469.331588,1.25231788 L484.378746,1.25231788 C487.14017,1.25231788 489.378746,3.49089413 489.378746,6.25231788 L489.378746,19.4260977 C489.378746,22.1875215 487.14017,24.4260977 484.378746,24.4260977 L469.883344,24.4260977 L469.883344,24.4260977 C463.99794,24.5487103 458.602986,25.6522236 453.698482,27.7366377 C448.793978,29.8210518 444.533191,32.7024477 440.916119,36.3808254 C437.299048,40.0592032 434.509611,44.381297 432.54781,49.347107 C430.586009,54.3129169 429.605108,59.7385241 429.605108,65.6239285 C429.605108,71.5093329 430.586009,76.9349401 432.54781,81.9007501 C434.509611,86.86656 437.299048,91.1886539 440.916119,94.8670317 C444.533191,98.5454094 448.793978,101.426805 453.698482,103.511219 C458.602986,105.595633 463.99794,106.699147 469.883344,106.821759 L484.378746,106.821759 C487.14017,106.821759 489.378746,109.060336 489.378746,111.821759 L489.378746,124.995539 C489.378746,127.756963 487.14017,129.995539 484.378746,129.995539 L469.331588,129.995539 L469.331588,129.995539 Z" id="Path"/>
                <path d="M547.43012,132.202566 C537.743726,132.202566 529.099538,130.026192 521.497557,125.673445 C513.895577,121.320698 507.88756,115.423799 503.473506,107.982747 C499.059453,100.541696 496.852426,92.2461875 496.852426,83.0962229 C496.852426,73.9462582 499.059453,65.65075 503.473506,58.2096984 C507.88756,50.7686467 513.895577,44.8717474 521.497557,40.5190004 C529.099538,36.1662534 537.743726,33.9898799 547.43012,33.9898799 C557.116515,33.9898799 565.760703,36.1662534 573.362684,40.5190004 C580.964664,44.8717474 586.972681,50.743741 591.386735,58.1349813 C595.800788,65.5262216 598.007815,73.8638779 598.007815,83.14795 C598.007815,92.3094096 595.800788,100.59917 591.386735,108.017232 C586.972681,115.435294 580.964664,121.320698 573.362684,125.673445 C565.760703,130.026192 557.116515,132.202566 547.43012,132.202566 Z M547.43012,110.684056 C552.579849,110.684056 557.024556,109.45793 560.76424,107.005678 C564.503924,104.553426 567.38532,101.250071 569.408427,97.0956113 C571.431535,92.9411518 572.443089,88.2823523 572.443089,83.1192127 C572.443089,77.9541573 571.431535,73.2872155 569.408427,69.1183874 C567.38532,64.9495593 564.503924,61.6390193 560.76424,59.1867675 C557.024556,56.7345156 552.579849,55.5083897 547.43012,55.5083897 C542.280392,55.5083897 537.835685,56.7345156 534.096001,59.1867675 C530.356317,61.6390193 527.474921,64.9423749 525.451813,69.0968344 C523.428706,73.2512939 522.417152,77.9100934 522.417152,83.073233 C522.417152,88.2382884 523.428706,92.9052302 525.451813,97.0740583 C527.474921,101.242886 530.356317,104.553426 534.096001,107.005678 C537.835685,109.45793 542.280392,110.684056 547.43012,110.684056 Z" id="Shape"/>
                <path d="M610.079467,124.995539 L610.079467,76.1073051 L610.079467,76.1073051 C610.079467,68.3827118 611.888003,61.3324878 615.505074,54.9566331 C619.122145,48.5807783 624.363834,43.4923557 631.230139,39.6913654 C638.096444,35.890375 646.311488,33.9898799 655.87527,33.9898799 C665.561665,33.9898799 673.807361,35.890375 680.61236,39.6913654 C687.417359,43.4923557 692.628394,48.5807783 696.245466,54.9566331 C699.862537,61.3324878 701.671073,68.3827118 701.671073,76.1073051 L701.671073,124.995539 C701.671073,127.756963 699.432497,129.995539 696.671073,129.995539 L681.474185,129.995539 C678.712761,129.995539 676.474185,127.756963 676.474185,124.995539 L676.474185,76.1073051 L676.474185,76.1073051 C676.474185,72.3063148 675.554591,68.8425091 673.715402,65.715888 C671.876213,62.5892669 669.393308,60.1063619 666.266687,58.267173 C663.140066,56.4279842 659.67626,55.5083897 655.87527,55.5083897 C652.074279,55.5083897 648.610474,56.4279842 645.483853,58.267173 C642.357232,60.1063619 639.874327,62.5892669 638.035138,65.715888 C636.195949,68.8425091 635.276354,72.3063148 635.276354,76.1073051 L635.276354,124.995539 C635.276354,127.756963 633.037778,129.995539 630.276354,129.995539 L615.079467,129.995539 C612.318043,129.995539 610.079467,127.756963 610.079467,124.995539 Z" id="Path"/>
                <path d="M220,0 C256.450793,0 286,29.5492065 286,66 C286,102.450793 256.450793,132 220,132 C183.549207,132 154,102.450793 154,66 C154,29.5492065 183.549207,0 220,0 Z M202.998114,18.5684465 L201.060549,21.3999401 L202.599985,24.0686219 L201.968449,29.1472083 L200.163252,26.8439825 L200.508593,23.4544072 L197.438924,21.4389299 L194.046873,22.8008258 L194.030014,26.7136531 L197.005733,28.2298577 L198.465446,34.1573498 L200.61706,40.9723933 L200.586562,48.0553046 L202.931208,50.1263599 L207.542089,50.3475832 L209.400492,51.2944867 L204.887039,60.0737399 L204.466725,67.5835635 L195.714846,58.6875541 L192.312527,56.9539858 L186.704108,59.1051631 L185.697001,61.0817231 L185.33016,71.2689412 L189.940353,84.8929369 L185.57389,81.0138955 L181.786633,74.4242913 L180.619633,70.7709048 L180.98421,68.4662059 L183.172705,66.0359334 L181.79657,62.8906259 L178.504598,62.1909753 L176.544165,65.394341 L178.020449,67.5898753 L177.446545,70.4615654 L175.469868,68.1469687 L175.410013,65.6260104 L171.567433,64.2564815 L169.585582,66.4562044 L170.162528,69.6764924 L172.978625,70.3978777 L174.209132,72.9707067 L171.967902,73.2620396 L169.664025,70.6548594 L166.350807,71.90138 L166.075174,75.0356479 L168.56268,76.6961087 L170.619059,75.9092918 L174.226641,77.7474468 L181.941415,83.5129145 L188.892263,91.4652555 L192.515462,92.8510899 L196.85215,90.0635856 L196.167202,76.2023267 L201.449643,82.6917544 L203.934914,85.108433 L212.581806,89.5142447 L215.997746,90.1043831 L224.352743,90.5635773 L212.736147,98.1568863 L213.03005,103.303795 L216.280877,105.420451 L226.800061,106.369536 L235.999053,109.222063 L239.606635,111.060218 L240.178796,113.186342 L242.984257,114.222783 L245.35792,112.157515 L244.418915,108.744378 L240.955478,108.412965 L239.873809,106.428531 L242.678545,105.911761 L244.917418,107.766011 L247.861807,106.339933 L248.476516,103.443617 L245.109933,101.139894 L243.035253,102.573252 L240.000843,102.334572 L241.986757,100.182337 L244.630719,100.086173 L246.069983,96.6172583 L243.568981,94.3652416 L240.215502,95.1006907 L239.535735,98.2996981 L237.885488,99.9493156 L234.243891,101.152599 L226.686695,101.961916 L220.981942,100.709417 L234.713789,96.431157 L242.739799,90.1464803 L243.746906,88.1699204 L242.1907,82.3681843 L238.78838,80.634616 L226.447132,78.78314 L232.275653,74.0289357 L236.725277,65.2171598 L238.583679,66.1640633 L241.472861,69.7643129 L244.526528,70.4438357 L250.238797,66.2559311 L257.016971,63.990842 L262.67041,61.6876821 L265.646129,63.2038867 L268.801763,60.8903447 L267.909763,57.3456157 L264.474901,56.0468693 L261.935664,58.3185983 L259.011247,58.2119656 L262.748702,54.7159238 L265.812568,54.3927417 L266.964423,51.1609086 L264.913055,48.4939041 L261.458558,49.2868133 L260.821427,52.5385803 L257.652947,55.2097392 L257.762601,50.9800308 L259.423641,48.8424202 L257.184867,45.6004461 L253.635732,45.8933335 L252.387339,49.4365458 L254.015935,51.819826 L252.919171,55.1078979 L249.19987,61.2718862 L244.698755,63.4331387 L240.062207,52.9534877 L243.680316,48.0903281 L243.7252,41.4492085 L245.066128,39.545948 L244.652833,34.4434719 L243.61945,33.2802624 L242.503832,28.9099732 L239.687989,25.818096 L239.718077,25.7599186 L239.625416,25.7500249 L239.562947,25.6808759 L239.532668,25.7389561 L235.377074,25.2787087 L231.185691,26.9449456 L229.637228,26.7926387 L225.266309,29.4574366 L224.514717,31.6609788 L219.16832,35.6008424 L217.360613,41.386448 L206.157102,43.7951857 L205.259904,38.8833551 L208.060525,32.251276 L210.075969,29.4312949 L212.961348,29.3479998 L215.09408,26.2553805 L213.244901,23.211915 L209.306171,23.3062938 L208.553142,25.9065592 L205.195689,28.4814313 L205.494317,24.3480098 L207.750555,21.9212192 L206.36153,18.6604119 L202.998114,18.5684465 Z" id="Shape"/>
                <path d="M0.836946708,181.343996 L0.836946708,160.293192 C0.836946708,159.149905 1.01117718,158.195392 1.35963811,157.429652 C1.70809905,156.663913 2.16567978,156.059287 2.7323803,155.615774 C3.29908082,155.172261 3.93117718,154.857068 4.62866936,154.670195 C5.32616155,154.483323 6.01709515,154.389887 6.70147015,154.389887 C7.64628785,154.400152 8.76029827,154.41384 10.0435014,154.430949 C11.3267045,154.448059 12.6777748,154.48665 14.0967123,154.546723 C15.5156498,154.606796 16.8855405,154.698996 18.2063842,154.823324 L18.2063842,158.560012 L7.90197796,158.560012 C7.08300921,158.560012 6.45433473,158.786996 6.01595452,159.240965 C5.57757431,159.694934 5.35838421,160.310111 5.35838421,161.086496 L5.35838421,166.53127 L16.5319467,166.790762 L16.5319467,170.334113 L5.35838421,170.594176 L5.35838421,181.343996 L0.836946708,181.343996 Z" id="Path"/>
                <path d="M20.6238587,181.343996 L20.6238587,161.790832 L24.1027649,161.790832 L25.1452962,164.920137 C25.9098952,163.97646 26.7707819,163.175361 27.7279564,162.51684 C28.6851308,161.858319 29.8115931,161.529059 31.1073431,161.529059 C31.3822337,161.529059 31.6660592,161.543697 31.9588196,161.572973 C32.25158,161.602249 32.5247597,161.653387 32.7783587,161.726387 L32.7783587,166.355613 C32.4247649,166.306947 32.0551074,166.265409 31.669386,166.231 C31.2836647,166.196591 30.9105853,166.179387 30.5501478,166.179387 C29.7752832,166.179387 29.0793118,166.269211 28.4622337,166.44886 C27.8451556,166.628508 27.2677142,166.893133 26.7299095,167.242735 C26.1921048,167.592336 25.6639004,168.034994 25.1452962,168.570707 L25.1452962,181.343996 L20.6238587,181.343996 Z" id="Path"/>
                <path d="M43.1806537,181.541324 C41.0625131,181.541324 39.3747683,181.246473 38.1174194,180.65677 C36.8600704,180.067067 35.9563152,179.045827 35.4061537,177.593051 C34.8559923,176.140275 34.5809116,174.129923 34.5809116,171.561996 C34.5809116,168.931335 34.848198,166.889901 35.3827709,165.437695 C35.9173438,163.98549 36.8029441,162.967387 38.0395717,162.383387 C39.2761993,161.799387 40.9507319,161.507387 43.0631694,161.507387 C44.934935,161.507387 46.4390392,161.699582 47.5754819,162.083973 C48.7119246,162.468363 49.5417293,163.142853 50.0648959,164.107442 C50.5880626,165.07203 50.8496459,166.423861 50.8496459,168.162934 C50.8496459,169.418001 50.6024155,170.415478 50.1079545,171.155363 C49.6134936,171.895249 48.9129597,172.422978 48.006353,172.738551 C47.0997462,173.054124 46.0282241,173.21191 44.7917866,173.21191 L39.0595756,173.21191 C39.1025392,174.418311 39.2636524,175.383565 39.5429155,176.107672 C39.8221785,176.831779 40.3340339,177.352189 41.0784819,177.668902 C41.8229298,177.985616 42.9126069,178.143973 44.3475131,178.143973 L50.2702084,178.143973 L50.2702084,180.807902 C49.2577136,180.991163 48.1965522,181.159215 47.0867241,181.312059 C45.9768959,181.464902 44.6748725,181.541324 43.1806537,181.541324 Z M39.0168022,170.457301 L44.3412397,170.457301 C45.1993699,170.457301 45.8308009,170.292576 46.2355326,169.963125 C46.6402644,169.633675 46.8426303,169.040835 46.8426303,168.184606 C46.8426303,167.330658 46.7168764,166.657309 46.4653686,166.164559 C46.2138608,165.671809 45.8120756,165.320876 45.2600131,165.111762 C44.7079506,164.902647 43.9756694,164.79809 43.0631694,164.79809 C42.0487735,164.79809 41.2464389,164.958158 40.6561655,165.278293 C40.065892,165.598429 39.6450964,166.168551 39.3937787,166.98866 C39.142461,167.80877 39.0168022,168.964983 39.0168022,170.457301 Z" id="Shape"/>
                <path d="M62.113652,181.541324 C59.9955113,181.541324 58.3077666,181.246473 57.0504176,180.65677 C55.7930686,180.067067 54.8893134,179.045827 54.339152,177.593051 C53.7889905,176.140275 53.5139098,174.129923 53.5139098,171.561996 C53.5139098,168.931335 53.7811962,166.889901 54.3157692,165.437695 C54.8503421,163.98549 55.7359423,162.967387 56.9725699,162.383387 C58.2091975,161.799387 59.8837301,161.507387 61.9961676,161.507387 C63.8679332,161.507387 65.3720374,161.699582 66.5084801,162.083973 C67.6449228,162.468363 68.4747275,163.142853 68.9978942,164.107442 C69.5210608,165.07203 69.7826442,166.423861 69.7826442,168.162934 C69.7826442,169.418001 69.5354137,170.415478 69.0409528,171.155363 C68.5464918,171.895249 67.845958,172.422978 66.9393512,172.738551 C66.0327444,173.054124 64.9612223,173.21191 63.7247848,173.21191 L57.9925738,173.21191 C58.0355374,174.418311 58.1966507,175.383565 58.4759137,176.107672 C58.7551767,176.831779 59.2670322,177.352189 60.0114801,177.668902 C60.755928,177.985616 61.8456051,178.143973 63.2805113,178.143973 L69.2032067,178.143973 L69.2032067,180.807902 C68.1907119,180.991163 67.1295504,181.159215 66.0197223,181.312059 C64.9098942,181.464902 63.6078707,181.541324 62.113652,181.541324 Z M57.9498004,170.457301 L63.2742379,170.457301 C64.1323681,170.457301 64.7637991,170.292576 65.1685309,169.963125 C65.5732626,169.633675 65.7756285,169.040835 65.7756285,168.184606 C65.7756285,167.330658 65.6498746,166.657309 65.3983668,166.164559 C65.146859,165.671809 64.7450738,165.320876 64.1930113,165.111762 C63.6409488,164.902647 62.9086676,164.79809 61.9961676,164.79809 C60.9817718,164.79809 60.1794371,164.958158 59.5891637,165.278293 C58.9988903,165.598429 58.5780947,166.168551 58.326777,166.98866 C58.0754593,167.80877 57.9498004,168.964983 57.9498004,170.457301 Z" id="Shape"/>
                <path d="M85.9501703,181.562996 C84.4916912,181.562996 83.2965063,181.127848 82.3646157,180.257551 C81.432725,179.387254 80.9667797,178.180663 80.9667797,176.637777 L80.9667797,174.991856 C80.9667797,173.491554 81.4845284,172.262245 82.5200258,171.30393 C83.5555232,170.345615 85.1509724,169.866457 87.3063735,169.866457 L92.8743344,169.866457 L92.8743344,168.161793 C92.8743344,167.474376 92.7565649,166.900452 92.5210258,166.44002 C92.2854867,165.979587 91.8458709,165.634453 91.2021782,165.404617 C90.5584854,165.174781 89.6018813,165.059863 88.3323657,165.059863 L82.4056782,165.059863 L82.4056782,162.438137 C83.3174177,162.185298 84.3786742,161.970195 85.5894477,161.792828 C86.8002211,161.615461 88.2462485,161.521835 89.9275297,161.511949 C91.5422745,161.501684 92.9062719,161.697681 94.0195219,162.099942 C95.1327719,162.502202 95.9737927,163.165951 96.5425844,164.091188 C97.1113761,165.016425 97.3957719,166.273298 97.3957719,167.861809 L97.3957719,181.343996 L93.8524203,181.343996 L93.0887719,179.222434 C92.9359282,179.365392 92.6379399,179.561009 92.1948071,179.809285 C91.7516742,180.057561 91.2014177,180.319905 90.5440375,180.596317 C89.8866573,180.872728 89.1638813,181.102944 88.3757094,181.286965 C87.5875375,181.470986 86.7790245,181.562996 85.9501703,181.562996 Z M88.1373188,178.370957 C88.44985,178.380843 88.8070558,178.346054 89.208936,178.26659 C89.6108162,178.187126 90.0177341,178.091504 90.4296899,177.979723 C90.8416456,177.867942 91.227462,177.753689 91.5871391,177.636965 C91.9468162,177.520241 92.2405271,177.414923 92.4682719,177.321012 C92.6960167,177.2271 92.8313709,177.173111 92.8743344,177.159043 L92.8743344,172.037637 L88.6528813,172.271465 C87.5400115,172.348647 86.73435,172.630477 86.2358969,173.116953 C85.7374438,173.60343 85.4882172,174.249689 85.4882172,175.055731 L85.4882172,175.87641 C85.4882172,176.483603 85.6129255,176.973406 85.8623422,177.34582 C86.1117589,177.718235 86.4394985,177.979723 86.845561,178.130285 C87.2516235,178.280848 87.6822094,178.361072 88.1373188,178.370957 Z" id="Shape"/>
                <path d="M101.190302,181.343996 L101.190302,161.790832 L104.875091,161.790832 L105.711739,163.839395 C106.510937,163.219655 107.489213,162.668543 108.646567,162.186059 C109.803921,161.703574 110.996065,161.462332 112.222997,161.462332 C113.755997,161.462332 114.962968,161.772202 115.843911,162.391942 C116.724854,163.011681 117.353623,163.842531 117.73022,164.884492 C118.106816,165.926453 118.295114,167.068504 118.295114,168.310645 L118.295114,181.343996 L113.773677,181.343996 L113.773677,168.86841 C113.773677,168.166546 113.640794,167.568858 113.375028,167.075348 C113.109263,166.581837 112.738654,166.200108 112.263204,165.93016 C111.787753,165.660212 111.209742,165.525238 110.529169,165.525238 C109.901825,165.525238 109.312407,165.591395 108.760915,165.723707 C108.209423,165.85602 107.688347,166.042512 107.197688,166.283184 C106.707029,166.523856 106.211713,166.808822 105.711739,167.138082 L105.711739,181.343996 L101.190302,181.343996 Z" id="Path"/>
                <path d="M128.480797,181.562996 C126.926125,181.562996 125.628189,181.230124 124.586989,180.564379 C123.545788,179.898634 122.766456,178.842986 122.248993,177.397434 C121.731529,175.951882 121.472797,174.067569 121.472797,171.744496 C121.472797,169.321048 121.703299,167.358983 122.164301,165.858301 C122.625304,164.357619 123.39361,163.257296 124.469219,162.557332 C125.544829,161.857369 127.003688,161.507387 128.845797,161.507387 C129.815329,161.507387 130.771077,161.608047 131.713043,161.809367 C132.65501,162.010688 133.48548,162.240809 134.204454,162.499731 L134.204454,153.494496 L138.725891,153.494496 L138.725891,181.343996 L134.968102,181.343996 L134.204454,179.43516 C133.802193,179.798639 133.282829,180.142443 132.64636,180.46657 C132.009891,180.790698 131.331219,181.054468 130.610344,181.257879 C129.889469,181.461291 129.17962,181.562996 128.480797,181.562996 Z M130.003532,177.907863 C130.881433,177.907863 131.672076,177.768517 132.375461,177.489824 C133.078847,177.211132 133.688511,176.921413 134.204454,176.620668 L134.204454,165.743098 C133.583954,165.541207 132.95718,165.354715 132.324133,165.183621 C131.691086,165.012527 131.00348,164.926981 130.261313,164.926981 C129.242735,164.926981 128.417303,165.111762 127.785016,165.481324 C127.15273,165.850887 126.696194,166.511784 126.415411,167.464016 C126.134627,168.416248 125.994235,169.771595 125.994235,171.530059 C125.994235,173.159632 126.126072,174.439793 126.389747,175.370543 C126.653421,176.301293 127.081726,176.956867 127.674661,177.337266 C128.267595,177.717664 129.043886,177.907863 130.003532,177.907863 Z" id="Shape"/>
                <path d="M161.733429,181.562996 C159.931242,181.562996 158.351476,181.389431 156.994132,181.042301 C155.636788,180.695171 154.504053,180.050052 153.595925,179.106945 C152.687797,178.163839 152.007985,176.790906 151.556488,174.988149 C151.10499,173.185391 150.879242,170.833137 150.879242,167.931387 C150.879242,165.020132 151.107462,162.658087 151.563902,160.845254 C152.020342,159.032421 152.705097,157.644375 153.618167,156.681117 C154.531238,155.71786 155.664068,155.055156 157.016659,154.693008 C158.369251,154.33086 159.941507,154.149785 161.733429,154.149785 C163.555387,154.149785 165.145038,154.33086 166.502382,154.693008 C167.859726,155.055156 168.98999,155.71786 169.893175,156.681117 C170.79636,157.644375 171.47123,159.032421 171.917784,160.845254 C172.364339,162.658087 172.587617,165.020132 172.587617,167.931387 C172.587617,170.833137 172.361773,173.185391 171.910085,174.988149 C171.458398,176.790906 170.778585,178.163839 169.870648,179.106945 C168.96271,180.050052 167.832446,180.695171 166.479855,181.042301 C165.127264,181.389431 163.545122,181.562996 161.733429,181.562996 Z M161.733429,177.50066 C162.918919,177.50066 163.916585,177.376047 164.726429,177.12682 C165.536273,176.877594 166.185764,176.417542 166.674902,175.746664 C167.16404,175.075787 167.518109,174.110723 167.737109,172.851473 C167.956109,171.592223 168.065609,169.952194 168.065609,167.931387 C168.065609,165.807923 167.953542,164.103925 167.729409,162.819391 C167.505277,161.534857 167.148736,160.560763 166.659788,159.89711 C166.17084,159.233456 165.523916,158.786711 164.719015,158.556875 C163.914114,158.327039 162.918919,158.212121 161.733429,158.212121 C160.612195,158.212121 159.648081,158.327039 158.841089,158.556875 C158.034097,158.786711 157.378523,159.233456 156.874367,159.89711 C156.37021,160.560763 155.998557,161.534857 155.759406,162.819391 C155.520255,164.103925 155.400679,165.807923 155.400679,167.931387 C155.400679,169.952194 155.505236,171.592223 155.714351,172.851473 C155.923465,174.110723 156.270025,175.075787 156.754031,175.746664 C157.238036,176.417542 157.888572,176.877594 158.70564,177.12682 C159.522708,177.376047 160.531971,177.50066 161.733429,177.50066 Z" id="Shape"/>
                <path d="M175.997087,189.994496 L175.997087,161.790832 L179.754876,161.790832 L180.518525,163.699668 C180.975155,163.346455 181.50488,163.001606 182.1077,162.665121 C182.710521,162.328637 183.368471,162.05156 184.081552,161.833891 C184.794633,161.616222 185.5291,161.507387 186.284954,161.507387 C187.513027,161.507387 188.570102,161.751861 189.456177,162.240809 C190.342253,162.729757 191.066169,163.421641 191.627927,164.316461 C192.189685,165.211281 192.6005,166.273393 192.860372,167.502797 C193.120245,168.732201 193.250181,170.085267 193.250181,171.561996 C193.250181,173.696486 193.026428,175.513026 192.578923,177.011617 C192.131418,178.510208 191.401323,179.650548 190.388638,180.432637 C189.375953,181.214725 188.008059,181.60577 186.284954,181.60577 C185.307059,181.60577 184.311958,181.472602 183.299654,181.206266 C182.287349,180.93993 181.360306,180.578257 180.518525,180.121246 L180.518525,189.994496 L175.997087,189.994496 Z M184.869439,177.86509 C185.571684,177.86509 186.214616,177.681354 186.798236,177.313883 C187.381855,176.946412 187.849512,176.307947 188.201204,175.398488 C188.552897,174.48903 188.728743,173.210199 188.728743,171.561996 C188.728743,169.973866 188.555749,168.709768 188.209759,167.769703 C187.86377,166.829638 187.403527,166.160091 186.829033,165.761063 C186.254538,165.362034 185.608564,165.16252 184.891111,165.16252 C183.998762,165.16252 183.183025,165.301866 182.4439,165.580559 C181.704775,165.859251 181.062983,166.14897 180.518525,166.449715 L180.518525,176.685113 C181.133322,177.036046 181.821309,177.320442 182.582486,177.538301 C183.343663,177.75616 184.10598,177.86509 184.869439,177.86509 Z" id="Shape"/>
                <path d="M204.514325,181.541324 C202.396185,181.541324 200.70844,181.246473 199.451091,180.65677 C198.193742,180.067067 197.289987,179.045827 196.739825,177.593051 C196.189664,176.140275 195.914583,174.129923 195.914583,171.561996 C195.914583,168.931335 196.181869,166.889901 196.716442,165.437695 C197.251015,163.98549 198.136615,162.967387 199.373243,162.383387 C200.609871,161.799387 202.284403,161.507387 204.396841,161.507387 C206.268606,161.507387 207.772711,161.699582 208.909153,162.083973 C210.045596,162.468363 210.875401,163.142853 211.398567,164.107442 C211.921734,165.07203 212.183317,166.423861 212.183317,168.162934 C212.183317,169.418001 211.936087,170.415478 211.441626,171.155363 C210.947165,171.895249 210.246631,172.422978 209.340024,172.738551 C208.433418,173.054124 207.361895,173.21191 206.125458,173.21191 L200.393247,173.21191 C200.436211,174.418311 200.597324,175.383565 200.876587,176.107672 C201.15585,176.831779 201.667705,177.352189 202.412153,177.668902 C203.156601,177.985616 204.246278,178.143973 205.681185,178.143973 L211.60388,178.143973 L211.60388,180.807902 C210.591385,180.991163 209.530224,181.159215 208.420395,181.312059 C207.310567,181.464902 206.008544,181.541324 204.514325,181.541324 Z M200.350474,170.457301 L205.674911,170.457301 C206.533041,170.457301 207.164472,170.292576 207.569204,169.963125 C207.973936,169.633675 208.176302,169.040835 208.176302,168.184606 C208.176302,167.330658 208.050548,166.657309 207.79904,166.164559 C207.547532,165.671809 207.145747,165.320876 206.593685,165.111762 C206.041622,164.902647 205.309341,164.79809 204.396841,164.79809 C203.382445,164.79809 202.58011,164.958158 201.989837,165.278293 C201.399563,165.598429 200.978768,166.168551 200.72745,166.98866 C200.476132,167.80877 200.350474,168.964983 200.350474,170.457301 Z" id="Shape"/>
                <path d="M215.464089,181.343996 L215.464089,161.790832 L219.148878,161.790832 L219.985526,163.839395 C220.784724,163.219655 221.763,162.668543 222.920355,162.186059 C224.077709,161.703574 225.269852,161.462332 226.496784,161.462332 C228.029784,161.462332 229.236756,161.772202 230.117698,162.391942 C230.998641,163.011681 231.627411,163.842531 232.004007,164.884492 C232.380603,165.926453 232.568901,167.068504 232.568901,168.310645 L232.568901,181.343996 L228.047464,181.343996 L228.047464,168.86841 C228.047464,168.166546 227.914581,167.568858 227.648816,167.075348 C227.38305,166.581837 227.012442,166.200108 226.536991,165.93016 C226.061541,165.660212 225.483529,165.525238 224.802956,165.525238 C224.175612,165.525238 223.586194,165.591395 223.034702,165.723707 C222.48321,165.85602 221.962135,166.042512 221.471476,166.283184 C220.980817,166.523856 220.4855,166.808822 219.985526,167.138082 L219.985526,181.343996 L215.464089,181.343996 Z" id="Path"/>
                <path d="M253.362941,181.562996 C252.720389,181.562996 252.025938,181.543701 251.279589,181.50511 C250.53324,181.466518 249.776436,181.408537 249.009175,181.331164 C248.241915,181.253792 247.515051,181.169386 246.828585,181.077945 C246.142119,180.986505 245.53274,180.87558 245.000449,180.745168 L245.000449,177.201817 C245.687485,177.264931 246.486493,177.31835 247.397472,177.362074 C248.308451,177.405798 249.2642,177.439827 250.264718,177.46416 C251.265236,177.488494 252.226498,177.50066 253.148503,177.50066 C254.132102,177.50066 254.996981,177.412167 255.74314,177.23518 C256.489299,177.058193 257.073964,176.738057 257.497136,176.274774 C257.920308,175.81149 258.131894,175.152874 258.131894,174.298926 L258.131894,173.018004 C258.131894,172.06102 257.862992,171.330735 257.325187,170.827149 C256.787382,170.323563 255.992081,170.07177 254.939285,170.07177 L252.417363,170.07177 C249.96616,170.07177 248.075764,169.53406 246.746175,168.458641 C245.416587,167.383222 244.751792,165.54615 244.751792,162.947426 L244.751792,161.547309 C244.751792,158.961132 245.479511,157.085184 246.934949,155.919465 C248.390386,154.753746 250.461191,154.170887 253.147363,154.170887 C254.070128,154.170887 255.023881,154.215656 256.00862,154.305195 C256.99336,154.394735 257.939889,154.503474 258.848206,154.631414 C259.756524,154.759354 260.528347,154.893473 261.163675,155.03377 L261.163675,158.577121 C260.074378,158.490054 258.84526,158.411065 257.47632,158.340156 C256.10738,158.269248 254.836058,158.233793 253.662355,158.233793 C252.730084,158.233793 251.915963,158.330081 251.219992,158.522656 C250.52402,158.715232 249.989923,159.065499 249.617699,159.573457 C249.245475,160.081416 249.059363,160.810845 249.059363,161.761746 L249.059363,162.668543 C249.059363,163.809168 249.371894,164.610362 249.996956,165.072125 C250.622019,165.533888 251.511706,165.76477 252.666019,165.76477 L255.49648,165.76477 C257.069402,165.76477 258.366387,166.054583 259.387437,166.634211 C260.408486,167.213839 261.172325,168.007048 261.678953,169.01384 C262.18558,170.020632 262.438894,171.169431 262.438894,172.460238 L262.438894,174.191707 C262.438894,176.192363 262.047469,177.725744 261.26462,178.791848 C260.481772,179.857952 259.410915,180.586336 258.05205,180.977 C256.693186,181.367664 255.130149,181.562996 253.362941,181.562996 Z" id="Path"/>
                <path d="M274.025274,181.541324 C272.484289,181.541324 271.156697,181.381447 270.042496,181.061692 C268.928296,180.741936 268.013705,180.203181 267.298723,179.445426 C266.583741,178.687671 266.060574,177.662439 265.729223,176.369731 C265.397871,175.077022 265.232195,173.463038 265.232195,171.527777 C265.232195,169.50659 265.401483,167.84508 265.740059,166.543246 C266.078634,165.241413 266.605413,164.222264 267.320395,163.485801 C268.035376,162.749337 268.949873,162.235486 270.063883,161.944246 C271.177893,161.653007 272.498357,161.507387 274.025274,161.507387 C275.566638,161.507387 276.896892,161.660231 278.016035,161.965918 C279.135178,162.271606 280.048629,162.792586 280.756387,163.52886 C281.464145,164.265133 281.989878,165.284186 282.333586,166.58602 C282.677294,167.887853 282.849149,169.535106 282.849149,171.527777 C282.849149,173.506001 282.684518,175.144985 282.355258,176.444727 C282.025998,177.744469 281.507393,178.766089 280.799445,179.509586 C280.091498,180.253083 279.177952,180.777581 278.058809,181.083078 C276.939665,181.388576 275.595154,181.541324 274.025274,181.541324 Z M274.025274,177.907863 C274.758695,177.907863 275.394404,177.840186 275.932399,177.704832 C276.470393,177.569478 276.914857,177.288029 277.265789,176.860485 C277.616721,176.43294 277.881346,175.789533 278.059664,174.930262 C278.237982,174.070991 278.327141,172.929606 278.327141,171.506106 C278.327141,170.07272 278.237982,168.932475 278.059664,168.085371 C277.881346,167.238267 277.616721,166.603509 277.265789,166.181098 C276.914857,165.758686 276.470393,165.479804 275.932399,165.344449 C275.394404,165.209095 274.758695,165.141418 274.025274,165.141418 C273.292232,165.141418 272.65928,165.209095 272.126418,165.344449 C271.593556,165.479804 271.151564,165.758686 270.800442,166.181098 C270.449319,166.603509 270.18707,167.238267 270.013695,168.085371 C269.84032,168.932475 269.753633,170.07272 269.753633,171.506106 C269.753633,172.929606 269.84032,174.070991 270.013695,174.930262 C270.18707,175.789533 270.449319,176.43294 270.800442,176.860485 C271.151564,177.288029 271.593556,177.569478 272.126418,177.704832 C272.65928,177.840186 273.292232,177.907863 274.025274,177.907863 Z" id="Shape"/>
                <path d="M291.772597,181.562996 C289.979154,181.562996 288.583219,181.056749 287.584792,180.044254 C286.586365,179.031759 286.087151,177.551988 286.087151,175.604942 L286.087151,161.790832 L290.608589,161.790832 L290.608589,174.296645 C290.608589,175.582889 290.904011,176.449099 291.494854,176.895274 C292.085698,177.341448 292.901815,177.564535 293.943206,177.564535 C294.780044,177.564535 295.599774,177.424999 296.402393,177.145926 C297.205013,176.866853 297.960867,176.483793 298.669956,175.996746 L298.669956,161.790832 L303.191964,161.790832 L303.191964,181.343996 L299.507175,181.343996 L298.669956,179.295434 C297.752513,179.89084 296.701807,180.417619 295.517839,180.87577 C294.33387,181.333921 293.085456,181.562996 291.772597,181.562996 Z" id="Path"/>
                <path d="M307.028928,181.343996 L307.028928,161.790832 L310.507834,161.790832 L311.550366,164.920137 C312.314965,163.97646 313.175851,163.175361 314.133026,162.51684 C315.0902,161.858319 316.216663,161.529059 317.512413,161.529059 C317.787303,161.529059 318.071129,161.543697 318.363889,161.572973 C318.65665,161.602249 318.929829,161.653387 319.183428,161.726387 L319.183428,166.355613 C318.829834,166.306947 318.460177,166.265409 318.074456,166.231 C317.688734,166.196591 317.315655,166.179387 316.955217,166.179387 C316.180353,166.179387 315.484381,166.269211 314.867303,166.44886 C314.250225,166.628508 313.672784,166.893133 313.134979,167.242735 C312.597174,167.592336 312.06897,168.034994 311.550366,168.570707 L311.550366,181.343996 L307.028928,181.343996 Z" id="Path"/>
                <path d="M329.053622,181.562996 C327.893226,181.562996 326.819898,181.408822 325.833637,181.100473 C324.847377,180.792124 323.992193,180.270763 323.268087,179.536391 C322.54398,178.802018 321.982602,177.791044 321.583954,176.503469 C321.185305,175.215893 320.985981,173.593069 320.985981,171.634996 C320.985981,169.629777 321.172093,167.971594 321.544317,166.660445 C321.916541,165.349297 322.45254,164.319408 323.152313,163.570777 C323.852087,162.822147 324.711833,162.293658 325.731551,161.985309 C326.75127,161.67696 327.90159,161.522785 329.182512,161.522785 C330.285877,161.522785 331.391903,161.580292 332.50059,161.695305 C333.609278,161.810318 334.733174,162.004509 335.872278,162.277879 L335.872278,164.899035 L330.533583,164.899035 C329.366723,164.899035 328.414587,165.079064 327.677172,165.439121 C326.939758,165.799179 326.393779,166.463593 326.039235,167.432363 C325.684691,168.401134 325.507419,169.800681 325.507419,171.631004 C325.507419,173.425207 325.688683,174.790916 326.051212,175.728129 C326.41374,176.665343 326.966183,177.298675 327.70854,177.628125 C328.450896,177.957576 329.406835,178.122301 330.576356,178.122301 L336.142606,178.122301 L336.142606,180.700684 C335.564309,180.853527 334.883451,180.998292 334.100032,181.134977 C333.316613,181.271662 332.492606,181.377169 331.628012,181.4515 C330.763419,181.525831 329.905288,181.562996 329.053622,181.562996 Z" id="Path"/>
                <path d="M346.740723,181.541324 C344.622583,181.541324 342.934838,181.246473 341.677489,180.65677 C340.42014,180.067067 339.516385,179.045827 338.966223,177.593051 C338.416062,176.140275 338.140981,174.129923 338.140981,171.561996 C338.140981,168.931335 338.408268,166.889901 338.94284,165.437695 C339.477413,163.98549 340.363014,162.967387 341.599641,162.383387 C342.836269,161.799387 344.510801,161.507387 346.623239,161.507387 C348.495005,161.507387 349.999109,161.699582 351.135551,162.083973 C352.271994,162.468363 353.101799,163.142853 353.624965,164.107442 C354.148132,165.07203 354.409715,166.423861 354.409715,168.162934 C354.409715,169.418001 354.162485,170.415478 353.668024,171.155363 C353.173563,171.895249 352.473029,172.422978 351.566422,172.738551 C350.659816,173.054124 349.588294,173.21191 348.351856,173.21191 L342.619645,173.21191 C342.662609,174.418311 342.823722,175.383565 343.102985,176.107672 C343.382248,176.831779 343.894103,177.352189 344.638551,177.668902 C345.382999,177.985616 346.472676,178.143973 347.907583,178.143973 L353.830278,178.143973 L353.830278,180.807902 C352.817783,180.991163 351.756622,181.159215 350.646794,181.312059 C349.536965,181.464902 348.234942,181.541324 346.740723,181.541324 Z M342.576872,170.457301 L347.901309,170.457301 C348.759439,170.457301 349.39087,170.292576 349.795602,169.963125 C350.200334,169.633675 350.4027,169.040835 350.4027,168.184606 C350.4027,167.330658 350.276946,166.657309 350.025438,166.164559 C349.77393,165.671809 349.372145,165.320876 348.820083,165.111762 C348.26802,164.902647 347.535739,164.79809 346.623239,164.79809 C345.608843,164.79809 344.806508,164.958158 344.216235,165.278293 C343.625962,165.598429 343.205166,166.168551 342.953848,166.98866 C342.702531,167.80877 342.576872,168.964983 342.576872,170.457301 Z" id="Shape"/>
                <path d="M374.690335,181.562996 C374.047783,181.562996 373.353333,181.543701 372.606984,181.50511 C371.860635,181.466518 371.10383,181.408537 370.33657,181.331164 C369.569309,181.253792 368.842446,181.169386 368.15598,181.077945 C367.469514,180.986505 366.860135,180.87558 366.327843,180.745168 L366.327843,177.201817 C367.01488,177.264931 367.813887,177.31835 368.724867,177.362074 C369.635846,177.405798 370.591594,177.439827 371.592113,177.46416 C372.592631,177.488494 373.553893,177.50066 374.475898,177.50066 C375.459497,177.50066 376.324376,177.412167 377.070535,177.23518 C377.816693,177.058193 378.401359,176.738057 378.824531,176.274774 C379.247703,175.81149 379.459289,175.152874 379.459289,174.298926 L379.459289,173.018004 C379.459289,172.06102 379.190386,171.330735 378.652581,170.827149 C378.114777,170.323563 377.319476,170.07177 376.266679,170.07177 L373.744757,170.07177 C371.293554,170.07177 369.403158,169.53406 368.07357,168.458641 C366.743981,167.383222 366.079187,165.54615 366.079187,162.947426 L366.079187,161.547309 C366.079187,158.961132 366.806906,157.085184 368.262343,155.919465 C369.717781,154.753746 371.788585,154.170887 374.474757,154.170887 C375.397523,154.170887 376.351275,154.215656 377.336015,154.305195 C378.320755,154.394735 379.267283,154.503474 380.175601,154.631414 C381.083919,154.759354 381.855742,154.893473 382.49107,155.03377 L382.49107,158.577121 C381.401773,158.490054 380.172654,158.411065 378.803714,158.340156 C377.434774,158.269248 376.163453,158.233793 374.989749,158.233793 C374.057479,158.233793 373.243358,158.330081 372.547386,158.522656 C371.851415,158.715232 371.317317,159.065499 370.945093,159.573457 C370.572869,160.081416 370.386757,160.810845 370.386757,161.761746 L370.386757,162.668543 C370.386757,163.809168 370.699289,164.610362 371.324351,165.072125 C371.949414,165.533888 372.839101,165.76477 373.993414,165.76477 L376.823874,165.76477 C378.396796,165.76477 379.693782,166.054583 380.714831,166.634211 C381.735881,167.213839 382.499719,168.007048 383.006347,169.01384 C383.512975,170.020632 383.766289,171.169431 383.766289,172.460238 L383.766289,174.191707 C383.766289,176.192363 383.374864,177.725744 382.592015,178.791848 C381.809166,179.857952 380.738309,180.586336 379.379445,180.977 C378.02058,181.367664 376.457544,181.562996 374.690335,181.562996 Z" id="Path"/>
                <path d="M395.352668,181.541324 C393.811684,181.541324 392.484091,181.381447 391.369891,181.061692 C390.25569,180.741936 389.341099,180.203181 388.626117,179.445426 C387.911136,178.687671 387.387969,177.662439 387.056617,176.369731 C386.725266,175.077022 386.55959,173.463038 386.55959,171.527777 C386.55959,169.50659 386.728878,167.84508 387.067453,166.543246 C387.406029,165.241413 387.932807,164.222264 388.647789,163.485801 C389.362771,162.749337 390.277267,162.235486 391.391278,161.944246 C392.505288,161.653007 393.825751,161.507387 395.352668,161.507387 C396.894033,161.507387 398.224287,161.660231 399.34343,161.965918 C400.462573,162.271606 401.376024,162.792586 402.083781,163.52886 C402.791539,164.265133 403.317272,165.284186 403.660981,166.58602 C404.004689,167.887853 404.176543,169.535106 404.176543,171.527777 C404.176543,173.506001 404.011913,175.144985 403.682653,176.444727 C403.353392,177.744469 402.834788,178.766089 402.12684,179.509586 C401.418892,180.253083 400.505347,180.777581 399.386203,181.083078 C398.26706,181.388576 396.922548,181.541324 395.352668,181.541324 Z M395.352668,177.907863 C396.08609,177.907863 396.721798,177.840186 397.259793,177.704832 C397.797788,177.569478 398.242251,177.288029 398.593184,176.860485 C398.944116,176.43294 399.208741,175.789533 399.387059,174.930262 C399.565376,174.070991 399.654535,172.929606 399.654535,171.506106 C399.654535,170.07272 399.565376,168.932475 399.387059,168.085371 C399.208741,167.238267 398.944116,166.603509 398.593184,166.181098 C398.242251,165.758686 397.797788,165.479804 397.259793,165.344449 C396.721798,165.209095 396.08609,165.141418 395.352668,165.141418 C394.619626,165.141418 393.986675,165.209095 393.453813,165.344449 C392.920951,165.479804 392.478959,165.758686 392.127836,166.181098 C391.776714,166.603509 391.514465,167.238267 391.34109,168.085371 C391.167715,168.932475 391.081028,170.07272 391.081028,171.506106 C391.081028,172.929606 391.167715,174.070991 391.34109,174.930262 C391.514465,175.789533 391.776714,176.43294 392.127836,176.860485 C392.478959,177.288029 392.920951,177.569478 393.453813,177.704832 C393.986675,177.840186 394.619626,177.907863 395.352668,177.907863 Z" id="Shape"/>
                <path d="M408.725694,181.343996 L408.725694,165.424863 L405.871851,165.424863 L405.871851,162.524824 L408.725694,161.790832 L408.725694,160.148902 C408.725694,158.590809 408.92844,157.303708 409.333933,156.287602 C409.739425,155.271495 410.392623,154.515451 411.293526,154.019469 C412.19443,153.523487 413.399785,153.275496 414.909593,153.275496 C415.761259,153.275496 416.518729,153.32844 417.182003,153.434328 C417.845276,153.540216 418.405989,153.646009 418.86414,153.751707 L418.86414,156.973402 L415.782741,156.973402 C415.110533,156.973402 414.592214,157.079766 414.227784,157.292492 C413.863354,157.505219 413.608805,157.826495 413.464136,158.25632 C413.319466,158.686146 413.247132,159.238304 413.247132,159.912793 L413.247132,161.790832 L418.608069,161.790832 L418.608069,165.424863 L413.247132,165.424863 L413.247132,181.343996 L408.725694,181.343996 Z" id="Path"/>
                <path d="M427.853231,181.343996 C426.435054,181.343996 425.276274,181.128988 424.376892,180.698973 C423.477509,180.268957 422.824881,179.560154 422.419009,178.572563 C422.013136,177.584972 421.824648,176.264793 421.853544,174.612027 L422.012091,165.424863 L418.937536,165.424863 L418.937536,162.524824 L422.153528,161.790832 L422.788856,156.309559 L426.332208,156.309559 L426.332208,161.790832 L431.304192,161.790832 L431.304192,165.424863 L426.332208,165.424863 L426.332208,174.590356 C426.332208,175.227965 426.396653,175.74771 426.525544,176.14959 C426.654435,176.55147 426.831326,176.866568 427.05622,177.094883 C427.281113,177.323198 427.53148,177.487448 427.807321,177.587633 C428.083162,177.687818 428.360619,177.750077 428.639692,177.77441 L431.082911,178.015082 L431.082911,181.343996 L427.853231,181.343996 Z" id="Path"/>
                <polygon id="Path" points="437.584407 181.343996 432.137922 161.790832 436.788251 161.790832 440.482165 177.159043 444.720157 161.790832 448.499618 161.790832 452.73761 177.159043 456.195415 161.790832 460.845743 161.790832 455.464274 181.343996 450.483735 181.343996 446.524055 168.099059 442.479399 181.343996"/>
                <path d="M466.272672,181.562996 C464.814192,181.562996 463.619008,181.127848 462.687117,180.257551 C461.755226,179.387254 461.289281,178.180663 461.289281,176.637777 L461.289281,174.991856 C461.289281,173.491554 461.80703,172.262245 462.842527,171.30393 C463.878024,170.345615 465.473474,169.866457 467.628875,169.866457 L473.196836,169.866457 L473.196836,168.161793 C473.196836,167.474376 473.079066,166.900452 472.843527,166.44002 C472.607988,165.979587 472.168372,165.634453 471.524679,165.404617 C470.880987,165.174781 469.924383,165.059863 468.654867,165.059863 L462.728179,165.059863 L462.728179,162.438137 C463.639919,162.185298 464.701176,161.970195 465.911949,161.792828 C467.122722,161.615461 468.56875,161.521835 470.250031,161.511949 C471.864776,161.501684 473.228773,161.697681 474.342023,162.099942 C475.455273,162.502202 476.296294,163.165951 476.865086,164.091188 C477.433877,165.016425 477.718273,166.273298 477.718273,167.861809 L477.718273,181.343996 L474.174922,181.343996 L473.411273,179.222434 C473.258429,179.365392 472.960441,179.561009 472.517308,179.809285 C472.074176,180.057561 471.523919,180.319905 470.866539,180.596317 C470.209159,180.872728 469.486383,181.102944 468.698211,181.286965 C467.910039,181.470986 467.101526,181.562996 466.272672,181.562996 Z M468.45982,178.370957 C468.772351,178.380843 469.129557,178.346054 469.531437,178.26659 C469.933317,178.187126 470.340235,178.091504 470.752191,177.979723 C471.164147,177.867942 471.549963,177.753689 471.90964,177.636965 C472.269317,177.520241 472.563028,177.414923 472.790773,177.321012 C473.018518,177.2271 473.153872,177.173111 473.196836,177.159043 L473.196836,172.037637 L468.975383,172.271465 C467.862513,172.348647 467.056851,172.630477 466.558398,173.116953 C466.059945,173.60343 465.810718,174.249689 465.810718,175.055731 L465.810718,175.87641 C465.810718,176.483603 465.935427,176.973406 466.184843,177.34582 C466.43426,177.718235 466.762,177.979723 467.168062,178.130285 C467.574125,178.280848 468.004711,178.361072 468.45982,178.370957 Z" id="Shape"/>
                <path d="M481.512803,181.343996 L481.512803,161.790832 L484.991709,161.790832 L486.03424,164.920137 C486.798839,163.97646 487.659726,163.175361 488.616901,162.51684 C489.574075,161.858319 490.700537,161.529059 491.996287,161.529059 C492.271178,161.529059 492.555003,161.543697 492.847764,161.572973 C493.140524,161.602249 493.413704,161.653387 493.667303,161.726387 L493.667303,166.355613 C493.313709,166.306947 492.944052,166.265409 492.55833,166.231 C492.172609,166.196591 491.799529,166.179387 491.439092,166.179387 C490.664227,166.179387 489.968256,166.269211 489.351178,166.44886 C488.7341,166.628508 488.156658,166.893133 487.618854,167.242735 C487.081049,167.592336 486.552845,168.034994 486.03424,168.570707 L486.03424,181.343996 L481.512803,181.343996 Z" id="Path"/>
                <path d="M504.069598,181.541324 C501.951457,181.541324 500.263712,181.246473 499.006364,180.65677 C497.749015,180.067067 496.845259,179.045827 496.295098,177.593051 C495.744936,176.140275 495.469856,174.129923 495.469856,171.561996 C495.469856,168.931335 495.737142,166.889901 496.271715,165.437695 C496.806288,163.98549 497.691888,162.967387 498.928516,162.383387 C500.165143,161.799387 501.839676,161.507387 503.952114,161.507387 C505.823879,161.507387 507.327983,161.699582 508.464426,162.083973 C509.600869,162.468363 510.430673,163.142853 510.95384,164.107442 C511.477007,165.07203 511.73859,166.423861 511.73859,168.162934 C511.73859,169.418001 511.49136,170.415478 510.996899,171.155363 C510.502438,171.895249 509.801904,172.422978 508.895297,172.738551 C507.98869,173.054124 506.917168,173.21191 505.680731,173.21191 L499.94852,173.21191 C499.991483,174.418311 500.152597,175.383565 500.43186,176.107672 C500.711123,176.831779 501.222978,177.352189 501.967426,177.668902 C502.711874,177.985616 503.801551,178.143973 505.236457,178.143973 L511.159153,178.143973 L511.159153,180.807902 C510.146658,180.991163 509.085496,181.159215 507.975668,181.312059 C506.86584,181.464902 505.563817,181.541324 504.069598,181.541324 Z M499.905746,170.457301 L505.230184,170.457301 C506.088314,170.457301 506.719745,170.292576 507.124477,169.963125 C507.529209,169.633675 507.731574,169.040835 507.731574,168.184606 C507.731574,167.330658 507.605821,166.657309 507.354313,166.164559 C507.102805,165.671809 506.70102,165.320876 506.148957,165.111762 C505.596895,164.902647 504.864614,164.79809 503.952114,164.79809 C502.937718,164.79809 502.135383,164.958158 501.54511,165.278293 C500.954836,165.598429 500.534041,166.168551 500.282723,166.98866 C500.031405,167.80877 499.905746,168.964983 499.905746,170.457301 Z" id="Shape"/>
                <path d="M533.04178,181.562996 C531.458593,181.562996 530.066175,181.380496 528.864526,181.015496 C527.662878,180.650496 526.654185,179.983801 525.838448,179.01541 C525.022711,178.04702 524.40877,176.657929 523.996624,174.848137 C523.584478,173.038345 523.378405,170.683335 523.378405,167.783106 C523.378405,165.020892 523.591607,162.749432 524.018011,160.968727 C524.444414,159.188021 525.074039,157.802447 525.906886,156.812004 C526.739732,155.821561 527.764489,155.130248 528.981155,154.738063 C530.197822,154.345878 531.591476,154.149785 533.162116,154.149785 C534.219095,154.149785 535.252692,154.208813 536.262905,154.326867 C537.273119,154.444922 538.213469,154.588356 539.083956,154.757168 C539.954443,154.925981 540.708301,155.109811 541.34553,155.30866 L541.34553,158.787567 C540.913233,158.700119 540.322009,158.612766 539.571858,158.525508 C538.821707,158.43825 537.970706,158.364205 537.018855,158.303371 C536.067003,158.242538 535.078746,158.212121 534.054085,158.212121 C532.935512,158.212121 531.982425,158.337495 531.194823,158.588242 C530.407222,158.83899 529.772844,159.305125 529.29169,159.986649 C528.810537,160.668172 528.458274,161.639699 528.234901,162.901231 C528.011529,164.162762 527.899843,165.804501 527.899843,167.826449 C527.899843,169.818361 528.000788,171.451546 528.202679,172.726004 C528.404569,174.000462 528.736491,174.981685 529.198444,175.669672 C529.660398,176.357659 530.284795,176.83482 531.071636,177.101156 C531.858477,177.367492 532.841791,177.50066 534.021577,177.50066 C535.861025,177.50066 537.363608,177.460168 538.529327,177.379184 C539.695046,177.298199 540.63378,177.204098 541.34553,177.096879 L541.34553,180.575785 C540.656593,180.778817 539.882013,180.952952 539.021792,181.098192 C538.161571,181.243431 537.234148,181.357208 536.239523,181.439524 C535.244898,181.521839 534.178983,181.562996 533.04178,181.562996 Z" id="Path"/>
                <path d="M552.265429,181.541324 C550.724444,181.541324 549.396852,181.381447 548.282651,181.061692 C547.168451,180.741936 546.25386,180.203181 545.538878,179.445426 C544.823896,178.687671 544.300729,177.662439 543.969378,176.369731 C543.638026,175.077022 543.47235,173.463038 543.47235,171.527777 C543.47235,169.50659 543.641638,167.84508 543.980214,166.543246 C544.318789,165.241413 544.845568,164.222264 545.56055,163.485801 C546.275531,162.749337 547.190027,162.235486 548.304038,161.944246 C549.418048,161.653007 550.738512,161.507387 552.265429,161.507387 C553.806793,161.507387 555.137047,161.660231 556.25619,161.965918 C557.375333,162.271606 558.288784,162.792586 558.996542,163.52886 C559.7043,164.265133 560.230033,165.284186 560.573741,166.58602 C560.917449,167.887853 561.089304,169.535106 561.089304,171.527777 C561.089304,173.506001 560.924673,175.144985 560.595413,176.444727 C560.266152,177.744469 559.747548,178.766089 559.0396,179.509586 C558.331652,180.253083 557.418107,180.777581 556.298964,181.083078 C555.17982,181.388576 553.835309,181.541324 552.265429,181.541324 Z M552.265429,177.907863 C552.99885,177.907863 553.634559,177.840186 554.172554,177.704832 C554.710548,177.569478 555.155012,177.288029 555.505944,176.860485 C555.856876,176.43294 556.121501,175.789533 556.299819,174.930262 C556.478137,174.070991 556.567296,172.929606 556.567296,171.506106 C556.567296,170.07272 556.478137,168.932475 556.299819,168.085371 C556.121501,167.238267 555.856876,166.603509 555.505944,166.181098 C555.155012,165.758686 554.710548,165.479804 554.172554,165.344449 C553.634559,165.209095 552.99885,165.141418 552.265429,165.141418 C551.532387,165.141418 550.899435,165.209095 550.366573,165.344449 C549.833711,165.479804 549.391719,165.758686 549.040596,166.181098 C548.689474,166.603509 548.427225,167.238267 548.25385,168.085371 C548.080475,168.932475 547.993788,170.07272 547.993788,171.506106 C547.993788,172.929606 548.080475,174.070991 548.25385,174.930262 C548.427225,175.789533 548.689474,176.43294 549.040596,176.860485 C549.391719,177.288029 549.833711,177.569478 550.366573,177.704832 C550.899435,177.840186 551.532387,177.907863 552.265429,177.907863 Z" id="Shape"/>
                <path d="M564.37008,181.343996 L564.37008,161.790832 L568.054869,161.790832 L568.891517,163.839395 C569.690715,163.219655 570.668991,162.668543 571.826345,162.186059 C572.983699,161.703574 574.175843,161.462332 575.402775,161.462332 C576.935775,161.462332 578.142746,161.772202 579.023689,162.391942 C579.904632,163.011681 580.533401,163.842531 580.909998,164.884492 C581.286594,165.926453 581.474892,167.068504 581.474892,168.310645 L581.474892,181.343996 L576.953455,181.343996 L576.953455,168.86841 C576.953455,168.166546 576.820572,167.568858 576.554806,167.075348 C576.289041,166.581837 575.918433,166.200108 575.442982,165.93016 C574.967531,165.660212 574.38952,165.525238 573.708947,165.525238 C573.081603,165.525238 572.492185,165.591395 571.940693,165.723707 C571.389201,165.85602 570.868125,166.042512 570.377466,166.283184 C569.886808,166.523856 569.391491,166.808822 568.891517,167.138082 L568.891517,181.343996 L564.37008,181.343996 Z" id="Path"/>
                <path d="M586.537458,181.343996 L586.537458,165.424863 L583.683614,165.424863 L583.683614,162.524824 L586.537458,161.790832 L586.537458,160.148902 C586.537458,158.590809 586.740204,157.303708 587.145696,156.287602 C587.551189,155.271495 588.204387,154.515451 589.10529,154.019469 C590.006194,153.523487 591.211549,153.275496 592.721357,153.275496 C593.573023,153.275496 594.330493,153.32844 594.993767,153.434328 C595.65704,153.540216 596.217752,153.646009 596.675903,153.751707 L596.675903,156.973402 L593.594505,156.973402 C592.922297,156.973402 592.403978,157.079766 592.039548,157.292492 C591.675118,157.505219 591.420569,157.826495 591.2759,158.25632 C591.13123,158.686146 591.058896,159.238304 591.058896,159.912793 L591.058896,161.790832 L596.419833,161.790832 L596.419833,165.424863 L591.058896,165.424863 L591.058896,181.343996 L586.537458,181.343996 Z" id="Path"/>
                <path d="M606.532441,181.541324 C604.4143,181.541324 602.726555,181.246473 601.469206,180.65677 C600.211857,180.067067 599.308102,179.045827 598.757941,177.593051 C598.207779,176.140275 597.932698,174.129923 597.932698,171.561996 C597.932698,168.931335 598.199985,166.889901 598.734558,165.437695 C599.269131,163.98549 600.154731,162.967387 601.391359,162.383387 C602.627986,161.799387 604.302519,161.507387 606.414956,161.507387 C608.286722,161.507387 609.790826,161.699582 610.927269,162.083973 C612.063711,162.468363 612.893516,163.142853 613.416683,164.107442 C613.93985,165.07203 614.201433,166.423861 614.201433,168.162934 C614.201433,169.418001 613.954202,170.415478 613.459741,171.155363 C612.965281,171.895249 612.264747,172.422978 611.35814,172.738551 C610.451533,173.054124 609.380011,173.21191 608.143573,173.21191 L602.411363,173.21191 C602.454326,174.418311 602.615439,175.383565 602.894702,176.107672 C603.173965,176.831779 603.685821,177.352189 604.430269,177.668902 C605.174717,177.985616 606.264394,178.143973 607.6993,178.143973 L613.621995,178.143973 L613.621995,180.807902 C612.609501,180.991163 611.548339,181.159215 610.438511,181.312059 C609.328683,181.464902 608.026659,181.541324 606.532441,181.541324 Z M602.368589,170.457301 L607.693027,170.457301 C608.551157,170.457301 609.182588,170.292576 609.58732,169.963125 C609.992051,169.633675 610.194417,169.040835 610.194417,168.184606 C610.194417,167.330658 610.068663,166.657309 609.817156,166.164559 C609.565648,165.671809 609.163863,165.320876 608.6118,165.111762 C608.059738,164.902647 607.327456,164.79809 606.414956,164.79809 C605.40056,164.79809 604.598226,164.958158 604.007952,165.278293 C603.417679,165.598429 602.996883,166.168551 602.745566,166.98866 C602.494248,167.80877 602.368589,168.964983 602.368589,170.457301 Z" id="Shape"/>
                <path d="M617.482205,181.343996 L617.482205,161.790832 L620.961111,161.790832 L622.003642,164.920137 C622.768241,163.97646 623.629128,163.175361 624.586302,162.51684 C625.543477,161.858319 626.669939,161.529059 627.965689,161.529059 C628.24058,161.529059 628.524405,161.543697 628.817165,161.572973 C629.109926,161.602249 629.383106,161.653387 629.636705,161.726387 L629.636705,166.355613 C629.283111,166.306947 628.913453,166.265409 628.527732,166.231 C628.142011,166.196591 627.768931,166.179387 627.408494,166.179387 C626.633629,166.179387 625.937658,166.269211 625.32058,166.44886 C624.703501,166.628508 624.12606,166.893133 623.588255,167.242735 C623.050451,167.592336 622.522246,168.034994 622.003642,168.570707 L622.003642,181.343996 L617.482205,181.343996 Z" id="Path"/>
                <path d="M640.039,181.541324 C637.920859,181.541324 636.233114,181.246473 634.975765,180.65677 C633.718416,180.067067 632.814661,179.045827 632.2645,177.593051 C631.714338,176.140275 631.439257,174.129923 631.439257,171.561996 C631.439257,168.931335 631.706544,166.889901 632.241117,165.437695 C632.77569,163.98549 633.66129,162.967387 634.897918,162.383387 C636.134545,161.799387 637.809078,161.507387 639.921515,161.507387 C641.793281,161.507387 643.297385,161.699582 644.433828,162.083973 C645.57027,162.468363 646.400075,163.142853 646.923242,164.107442 C647.446408,165.07203 647.707992,166.423861 647.707992,168.162934 C647.707992,169.418001 647.460761,170.415478 646.9663,171.155363 C646.471839,171.895249 645.771306,172.422978 644.864699,172.738551 C643.958092,173.054124 642.88657,173.21191 641.650132,173.21191 L635.917921,173.21191 C635.960885,174.418311 636.121998,175.383565 636.401261,176.107672 C636.680524,176.831779 637.19238,177.352189 637.936828,177.668902 C638.681276,177.985616 639.770953,178.143973 641.205859,178.143973 L647.128554,178.143973 L647.128554,180.807902 C646.116059,180.991163 645.054898,181.159215 643.94507,181.312059 C642.835242,181.464902 641.533218,181.541324 640.039,181.541324 Z M635.875148,170.457301 L641.199586,170.457301 C642.057716,170.457301 642.689147,170.292576 643.093878,169.963125 C643.49861,169.633675 643.700976,169.040835 643.700976,168.184606 C643.700976,167.330658 643.575222,166.657309 643.323714,166.164559 C643.072207,165.671809 642.670421,165.320876 642.118359,165.111762 C641.566296,164.902647 640.834015,164.79809 639.921515,164.79809 C638.907119,164.79809 638.104785,164.958158 637.514511,165.278293 C636.924238,165.598429 636.503442,166.168551 636.252125,166.98866 C636.000807,167.80877 635.875148,168.964983 635.875148,170.457301 Z" id="Shape"/>
                <path d="M650.988763,181.343996 L650.988763,161.790832 L654.673552,161.790832 L655.510201,163.839395 C656.309399,163.219655 657.287675,162.668543 658.445029,162.186059 C659.602383,161.703574 660.794526,161.462332 662.021459,161.462332 C663.554459,161.462332 664.76143,161.772202 665.642373,162.391942 C666.523316,163.011681 667.152085,163.842531 667.528681,164.884492 C667.905278,165.926453 668.093576,167.068504 668.093576,168.310645 L668.093576,181.343996 L663.572138,181.343996 L663.572138,168.86841 C663.572138,168.166546 663.439256,167.568858 663.17349,167.075348 C662.907724,166.581837 662.537116,166.200108 662.061666,165.93016 C661.586215,165.660212 661.008204,165.525238 660.327631,165.525238 C659.700287,165.525238 659.110869,165.591395 658.559377,165.723707 C658.007885,165.85602 657.486809,166.042512 656.99615,166.283184 C656.505491,166.523856 656.010175,166.808822 655.510201,167.138082 L655.510201,181.343996 L650.988763,181.343996 Z" id="Path"/>
                <path d="M679.3389,181.562996 C678.178504,181.562996 677.105176,181.408822 676.118915,181.100473 C675.132655,180.792124 674.277471,180.270763 673.553365,179.536391 C672.829258,178.802018 672.26788,177.791044 671.869232,176.503469 C671.470583,175.215893 671.271259,173.593069 671.271259,171.634996 C671.271259,169.629777 671.457371,167.971594 671.829595,166.660445 C672.201819,165.349297 672.737818,164.319408 673.437591,163.570777 C674.137365,162.822147 674.997111,162.293658 676.016829,161.985309 C677.036548,161.67696 678.186869,161.522785 679.46779,161.522785 C680.571155,161.522785 681.677181,161.580292 682.785869,161.695305 C683.894556,161.810318 685.018452,162.004509 686.157556,162.277879 L686.157556,164.899035 L680.818861,164.899035 C679.652001,164.899035 678.699865,165.079064 677.962451,165.439121 C677.225036,165.799179 676.679057,166.463593 676.324513,167.432363 C675.969969,168.401134 675.792697,169.800681 675.792697,171.631004 C675.792697,173.425207 675.973961,174.790916 676.33649,175.728129 C676.699018,176.665343 677.251461,177.298675 677.993818,177.628125 C678.736175,177.957576 679.692113,178.122301 680.861634,178.122301 L686.427884,178.122301 L686.427884,180.700684 C685.849587,180.853527 685.168729,180.998292 684.38531,181.134977 C683.601891,181.271662 682.777884,181.377169 681.91329,181.4515 C681.048697,181.525831 680.190566,181.562996 679.3389,181.562996 Z" id="Path"/>
                <path d="M697.026001,181.541324 C694.907861,181.541324 693.220116,181.246473 691.962767,180.65677 C690.705418,180.067067 689.801663,179.045827 689.251501,177.593051 C688.70134,176.140275 688.426259,174.129923 688.426259,171.561996 C688.426259,168.931335 688.693546,166.889901 689.228119,165.437695 C689.762691,163.98549 690.648292,162.967387 691.884919,162.383387 C693.121547,161.799387 694.796079,161.507387 696.908517,161.507387 C698.780283,161.507387 700.284387,161.699582 701.420829,162.083973 C702.557272,162.468363 703.387077,163.142853 703.910244,164.107442 C704.43341,165.07203 704.694994,166.423861 704.694994,168.162934 C704.694994,169.418001 704.447763,170.415478 703.953302,171.155363 C703.458841,171.895249 702.758307,172.422978 701.851701,172.738551 C700.945094,173.054124 699.873572,173.21191 698.637134,173.21191 L692.904923,173.21191 C692.947887,174.418311 693.109,175.383565 693.388263,176.107672 C693.667526,176.831779 694.179382,177.352189 694.923829,177.668902 C695.668277,177.985616 696.757954,178.143973 698.192861,178.143973 L704.115556,178.143973 L704.115556,180.807902 C703.103061,180.991163 702.0419,181.159215 700.932072,181.312059 C699.822244,181.464902 698.52022,181.541324 697.026001,181.541324 Z M692.86215,170.457301 L698.186587,170.457301 C699.044717,170.457301 699.676148,170.292576 700.08088,169.963125 C700.485612,169.633675 700.687978,169.040835 700.687978,168.184606 C700.687978,167.330658 700.562224,166.657309 700.310716,166.164559 C700.059208,165.671809 699.657423,165.320876 699.105361,165.111762 C698.553298,164.902647 697.821017,164.79809 696.908517,164.79809 C695.894121,164.79809 695.091786,164.958158 694.501513,165.278293 C693.91124,165.598429 693.490444,166.168551 693.239126,166.98866 C692.987809,167.80877 692.86215,168.964983 692.86215,170.457301 Z" id="Shape"/>
            </g>
        </g>
    </g>
</svg>